RECORD_ID|SOURCE_MODEL|GTECH_FEATURE_ID|GTECH_FEATURE_NAME|GTECH_FEATURE_TYPE|GTECH_FEATURE_VIEW|GTECH_DATA_FILTER|ARCGIS_MODEL|ARCGIS_FEATURE|ARCGIS_SUBTYPE_VALUE|ARCGIS_SUBTYPE_TEXT|ARCGIS_NOTES|ArcGIS to SAP Load Filter|SAP Object Class|SAP Subclass|SAP Type|GIS_Business_Object_Type|SAP_DEPENDENCY|SAP_Notes|GIS_Description
1|Gcomms|315|Premise|Point|VW_PREMISE_PT_1||ArcGIS||||Not to be migrated||||||||
2|Gcomms|2100|Inner Duct|Point|VW_GC_IDUCTF_S_2||ArcGIS||||Not to be migrated||||||||
3|Gcomms|2200|Conduit|Polyline|VW_GC_COND_L_3||ArcGIS|Conduit|1|Duct Bank|||Cable Section|Cable Installation Section|FLOC|FLOC|||str(!DESCRIPTION!).replace('Conduit','') + ' Conduit'
4|Gcomms|2300|Duct|Point|VW_GC_DUCTF_S_4||ArcGIS|DuctSymbol|||No subtype|||||||Not modeled in SAP|
5|Gcomms|2400|Formation|Polyline|VW_GC_FORMFROM_L_5||ArcGIS|DuctFormation|||To be confirmed|||||||Not modeled in SAP|
6|Gcomms|2700|Joint Pit|Point|VW_GC_MANHL_S_6||ArcGIS|Structure|2|Handhole|||Turret||EQUIP|FLOC||FLOC needs to redrawn|str(!MODELNUMBER!) + ' (Owner ' + str( !OWNER! ) +')'
7|Gcomms|4000|Fiber Duct|Polyline|VW_GC_FDUCT_L_7||ArcGIS||||Not to be migrated||||||||
8|Gcomms|4100|Fiber Inner Duct|Polyline|VW_GC_FIDUCT_L_8||ArcGIS||||Not to be migrated||||||||
9|Gcomms|4200|Fiber Branch Enclosure|Point|VW_GC_FBRANCH_S_9||ArcGIS||||Not to be migrated||||||||
10|Gcomms|4300|Fiber Coupler|Point|VW_GC_FCOUPLER_S_10||ArcGIS||||Not to be migrated||||||||
11|Gcomms|7200|Fiber Cable|Polyline|VW_GC_FCBL_L_11|GC_FCBL_L.PLACEMENT = 'UG'|ArcGIS|FiberCable|1|UG Fiber Cable|Subtype based on Placement Type|SUBTYPECODE=1|Fibre Cable||EQUIP|FLOC||FLOC needs to redrawn|str(!PARTNUMBER!) + ' UG Fiber Cable (Owner ' + str(!OWNER!) + ')'
12|Gcomms|7200|Fiber Cable|Polyline|VW_GC_FCBL_L_12|NVL(GC_FCBL_L.PLACEMENT, ' ') != 'UG'|ArcGIS|FiberCable|2|OH Fiber Cable|Subtype based on Placement Type|SUBTYPECODE=2|Fibre Cable||EQUIP|FLOC||FLOC needs to redrawn|str(!PARTNUMBER!) + ' OH Fiber Cable (Owner ' + str(!OWNER!) + ')'
13|Gcomms|7300|Fiber Wire|Polyline|VW_GC_FWIR_L_13|GC_FWIR_L.PLACEMENT = 'UG'|ArcGIS|FiberCable|4|UG Fiber Wire|Subtype based on Placement Type|SUBTYPECODE=4|Fibre Cable||EQUIP|FLOC||FLOC needs to redrawn|str(!PARTNUMBER!) + ' UG Fiber Wire (Owner ' + str(!OWNER!) + ')'
14|Gcomms|11300|Fiber Attachment|Point|VW_GC_FIBATT_S_14||ArcGIS||||Not to be migrated||||||||
15|Gcomms|11800|Fiber Splice Enclosure|Point|VW_GC_FSPLICE_S_15|GC_FSPLICE.FEATURE_TYPE='FSPLICE'|ArcGIS|SpliceClosure|1|Fiber Splice||SUBTYPECODE=1|JunctionBox||EQUIP|EQUIP|||str( !CU! ) + ' (Owner ' + str( !OWNER! ) + ')'
16|Gcomms|11900|Fiber Terminal|Point|VW_GC_FTERM_S_16||ArcGIS|Terminal|1|Terminal||SUBTYPECODE=1|||EQUIP|EQUIP||Not modeled in SAP|
17|Gcomms|12000|Fiber ISP Connect|Point|VW_GC_ISPCONNECT_S_17||ArcGIS|FiberISPconnect|||Add new feature class|||||||Not modeled in SAP|
18|Gcomms|12100|Optical Network Unit|Point|VW_GC_ONU_S_18||ArcGIS|OpticalNetworkUnit|||Add new feature class|||||||Not modeled in SAP|
19|Gcomms|12200|Fiber Patch Panel|Table|VW_GC_FPATCHPANEL_19||ArcGIS||||Not to be migrated (ISP)||||||||
20|Gcomms|12300|Fiber Splitter|Table|VW_GC_FSPLITTER_20||ArcGIS||||Not to be migrated (ISP)||||||||
21|Gcomms|12400|Fiber Interface|Point|VW_GC_FITFACE_S_21||ArcGIS|FiberDistributionHub|||||||||||
22|Gcomms|12500|Fiber Tray|Table|VW_GC_FTRAY_22||ArcGIS||||Not to be migrated (ISP)||||||||
23|Gcomms|13100|Fiber BNAP|Point|VW_GC_BNAP_S_23||ArcGIS|Terminal|2|BNAP||SUBTYPECODE=2||||||Not modeled in SAP|str(!NAME!) + ' (Owner ' + str( !OWNER! ) + ')'
24|Gcomms|13200|Fiber SNAP|Point|VW_GC_SNAP_S_24||ArcGIS|Terminal|3|SNAP||SUBTYPECODE=3||||||Not modeled in SAP|str(!NAME!) + ' (Owner ' + str( !OWNER! ) + ')'
25|Gcomms|13300|Fiber ZTERM|Point|VW_GC_ZTERM_S_25||ArcGIS|Terminal|4|ZTERM||SUBTYPECODE=4||||||Not modeled in SAP|str(!NAME!) + ' (Owner ' + str( !OWNER! ) + ')'
26|Gcomms|14100|Building|Polygon|VW_GC_BLDG_P_26||ArcGIS|Building|||Import from Gtech (Compare attributes)||Building||FLOC|FLOC|||str(!BUILDINGNAME! )
27|Gcomms|16000|GNAF|Point|VW_GNAF_S_27||ArcGIS||||Not to be imported||||||||
28|Gcomms|7300|Fiber Wire|Polyline|VW_GC_FWIR_L_28|NVL(GC_FWIR_L.PLACEMENT, ' ') != 'UG'|ArcGIS|FiberCable|5|OH  Fiber Wire||SUBTYPECODE=5|Fibre Cable||EQUIP|FLOC||FLOC needs to redrawn|str(!PARTNUMBER!) + ' OH Fiber Wire (Owner ' + str(!OWNER!) + ')'
29|Gcomms|0|Antenna|Junction|||ArcGIS|Antenna|||||Antenna||EQUIP|EQUIP|||
30|Gcomms|11800|Fiber Splice Enclosure|Point|VW_GC_FSPLICE_S_30|GC_FSPLICE.FEATURE_TYPE='JOINT CABINET'|ArcGIS|SpliceClosure|2|Joint Cabinet||SUBTYPECODE=2|JunctionBox||EQUIP|EQUIP|||str( !CU! ) + ' (Owner ' + str( !OWNER! ) + ')'
31|Gcomms|11800|Fiber Splice Enclosure|Point|VW_GC_FSPLICE_S_31|GC_FSPLICE.FEATURE_TYPE='OVERMOULD'|ArcGIS|SpliceClosure|3|Overmould||SUBTYPECODE=3|JunctionBox||EQUIP|EQUIP|||str( !CU! ) + ' (Owner ' + str( !OWNER! ) + ')'
