RECORD_ID|FEATURE_MAP_ID|GTECH_FEATURE_ID|GTECH_FEATURE_NAME|GTECH_FEATURE_TYPE|GTECH_DATA_FILTER|FME_FEATURE_TYPE|GTECH_FEATURE_VIEW|GTECH_COMPONENT_TYPE|GTECH_COMPONENT_TABLE|GTECH_FIELD_NAME|GTECH_FIELD_TYPE|GTECH_FIELD_LENGTH|GTECH_FIELD_ALIAS|GTECH_PICKLIST_NAME|GTECH_PICKLIST_TABLE|ARCGIS_FEATURE|ARCGIS_SUBTYPE_VALUE|ARCGIS_ATTRIBUTE_NAME|ARCGIS_ATTRIBUTE_ALIAS|ARCGIS_ATTRIBUTE_NVL|NOTES
1|3|2200|Conduit|Polyline||fme_feature_type|VW_GC_COND_L_3|Table|COMPUNIT_N|CU|TEXT|80|CU|||Conduit|1|CU|||CU
2|3|2200|Conduit|Polyline||fme_feature_type|VW_GC_COND_L_3|Table|GC_COND|DESCRIPTION|TEXT|255|Description|||Conduit|1|DESCRIPTION|||Description
3|3|2200|Conduit|Polyline||fme_feature_type|VW_GC_COND_L_3|Table|GC_COND|DESCRIPTION_FRNH|TEXT|255|DESCRIPTION_FRNH|||Conduit|1||||
4|3|2200|Conduit|Polyline||fme_feature_type|VW_GC_COND_L_3|Table|GC_COND|FEATURE_TYPE|TEXT|50|Feature Type|CONDUIT.FEATURE_TYPE->REF_COND_TYPES.FEATURE_TYPE Queries|REF_COND_TYPES|Conduit|1||||
5|3|2200|Conduit|Polyline||fme_feature_type|VW_GC_COND_L_3|Table|GC_COND|TOTAL_LENGTH|LONG||Total Length|||Conduit|1|CALCULATEDLENGTH|||Calculated Length
6|3|2200|Conduit|Polyline||fme_feature_type|VW_GC_COND_L_3|Polyline|GC_COND_L|G3E_FID|LONG||GComms Feature ID|||Conduit|1|G3E_FID|||G3E_FID
7|3|2200|Conduit|Polyline||fme_feature_type|VW_GC_COND_L_3|Polyline|GC_COND_L|G3E_FNO|LONG||G3E_FNO|||Conduit|1|G3E_FNO|G3E_FNO||
8|3|2200|Conduit|Polyline||fme_feature_type|VW_GC_COND_L_3|Polyline|GC_COND_L|SHAPE|SDO_GEOMETRY||GComms Geometry|||Conduit|1|SHAPE|||Shape
9|3|2200|Conduit|Polyline||fme_feature_type|VW_GC_COND_L_3|Label|GC_COND_T|SHAPE|SDO_GEOMETRY||GComms Geometry|||Conduit|1||||
10|3|2200|Conduit|Polyline||fme_feature_type|VW_GC_COND_L_3|Label|GC_COND_T|TYPE_CD|LONG||TYPE_CD|||Conduit|1||||
11|3|2200|Conduit|Polyline||fme_feature_type|VW_GC_COND_L_3|Table|GC_NETELEM|FEATURE_STATE|TEXT|10|Feature State|QUERY.FEATURE_STATE->REF_FEATURESTATE|REF_FEATURE_STATE|Conduit|1|STATE|||State
12|3|2200|Conduit|Polyline||fme_feature_type|VW_GC_COND_L_3|Table|GC_NETELEM|JOB_STATE|TEXT|10|Job State|JOB.JOB_STATE->REF_JOB_STATE.JOB_STATE|REF_JOB_STATE|Conduit|1|JOBSTATE|||Job State
13|3|2200|Conduit|Polyline||fme_feature_type|VW_GC_COND_L_3|Table|GC_NETELEM|LOCATION|TEXT|128|Location|||Conduit|1|LOCATION|||Location
14|3|2200|Conduit|Polyline||fme_feature_type|VW_GC_COND_L_3|Table|GC_NETELEM|MIN_MATERIAL|TEXT|80|Primary MIN|||Conduit|1|PARTNUMBER|||Part Number
15|3|2200|Conduit|Polyline||fme_feature_type|VW_GC_COND_L_3|Table|GC_NETELEM|OWNERSHIP|TEXT|30|Ownership|QUERY.OWNERSHIP->REF_OWNERSHIP|REF_OWNERSHIP|Conduit|1|OWNER|||Owner
16|3|2200|Conduit|Polyline||fme_feature_type|VW_GC_COND_L_3|Table|GC_NETELEM|SAPOBJECTKEY|TEXT|50|SAP Object Key|||Conduit|1|SAPOBJECTKEY|SAP Object Key||
17|3|2200|Conduit|Polyline||fme_feature_type|VW_GC_COND_L_3|Table|GC_NETELEM|SWITCH_CENTRE_CLLI|TEXT|25|Exchange Name|||Conduit|1|CLLI|||CLLI
18|3|2200|Conduit|Polyline||fme_feature_type|VW_GC_COND_L_3|Table|GC_NETELEM|YEAR_PLACED|TEXT|4|Year of Placement|||Conduit|1|INSTALLATIONDATE|||Installation Date
19|4|2300|Duct|Point||fme_feature_type|VW_GC_DUCTF_S_4|Table|COMPUNIT_N|CU|TEXT|80|CU|||DuctSymbol||CU|||CU
20|4|2300|Duct|Point||fme_feature_type|VW_GC_DUCTF_S_4|Table|GC_DUCT|AGREEMENT|TEXT|1|Agreement|DUCT.AGREEMENT->REF_YESNO.YESNO|REF_YESNO|DuctSymbol|||||
21|4|2300|Duct|Point||fme_feature_type|VW_GC_DUCTF_S_4|Table|GC_DUCT|ASSIGNMENT|TEXT|4|Logical Assignment|||DuctSymbol||DUCTNUMBER|||Duct Number
22|4|2300|Duct|Point||fme_feature_type|VW_GC_DUCTF_S_4|Table|GC_DUCT|CONNECTED|TEXT|1|Connected Status|DUCT.CONNECTED->REF_YESNO.YESNO|REF_YESNO|DuctSymbol|||||
23|4|2300|Duct|Point||fme_feature_type|VW_GC_DUCTF_S_4|Table|GC_DUCT|FEATURE_TYPE|TEXT|50|Feature Type|DUCT.FEATURE_TYPE->REF_DUCT_TYPES.FEATURE_TYPE Queries|REF_DUCT_TYPES|DuctSymbol|||||
24|4|2300|Duct|Point||fme_feature_type|VW_GC_DUCTF_S_4|Table|GC_DUCT|MISC_NOTES|TEXT|255|Miscelleneous Notes|||DuctSymbol||COMMENTS|||Comments
25|4|2300|Duct|Point||fme_feature_type|VW_GC_DUCTF_S_4|Table|GC_DUCT|POS_HORZ_FROM|LONG||Horiz. Pos. Form. IN|||DuctSymbol||HORIZPOSIN|||Horiz Pos In
26|4|2300|Duct|Point||fme_feature_type|VW_GC_DUCTF_S_4|Table|GC_DUCT|POS_HORZ_TO|LONG||Horiz. Pos. Form. OUT|||DuctSymbol||HORIZPOSOUT|||Horiz Pos Out
27|4|2300|Duct|Point||fme_feature_type|VW_GC_DUCTF_S_4|Table|GC_DUCT|POS_VERT_FROM|LONG||Vert. Pos. Form. IN|||DuctSymbol||VERTICALPOSIN|||Vertical Pos In
28|4|2300|Duct|Point||fme_feature_type|VW_GC_DUCTF_S_4|Table|GC_DUCT|POS_VERT_TO|LONG||Vert. Pos. Form. OUT|||DuctSymbol||VERTICALPOSOUT|||Vertical Pos Out
29|4|2300|Duct|Point||fme_feature_type|VW_GC_DUCTF_S_4|Table|GC_DUCT|STALE_FLAG_FROM|LONG||State of IN Graphic|||DuctSymbol||STATEINGRAPHIC|||State IN Graphic
30|4|2300|Duct|Point||fme_feature_type|VW_GC_DUCTF_S_4|Table|GC_DUCT|STALE_FLAG_TO|LONG||State of OUT Graphic|||DuctSymbol||STATEOUTGRAPHIC|||State OUT Graphic
31|4|2300|Duct|Point||fme_feature_type|VW_GC_DUCTF_S_5|Point|GC_DUCTF_S|ALIGNMENT|DOUBLE||Alignment|||DuctSymbol||SYMBOLROTATION|||Symbol Rotation
32|4|2300|Duct|Point||fme_feature_type|VW_GC_DUCTF_S_4|Table|GC_DUCTF_S|G3E_FID|LONG||GComms Feature ID|||DuctSymbol||G3E_FID|||G3E_FID
33|4|2300|Duct|Point||fme_feature_type|VW_GC_DUCTF_S_4|Table|GC_DUCTF_S|G3E_FNO|LONG||G3E_FNO|||DuctSymbol||G3E_FNO|G3E_FNO||
34|4|2300|Duct|Point||fme_feature_type|VW_GC_DUCTF_S_4|Point|GC_DUCTF_S|SHAPE|SDO_GEOMETRY||GComms Geometry|||DuctSymbol||SHAPE|||Shape
35|4|2300|Duct|Point||fme_feature_type|VW_GC_DUCTF_S_4|Table|GC_NETELEM|FEATURE_STATE|TEXT|10|Feature State|QUERY.FEATURE_STATE->REF_FEATURESTATE|REF_FEATURE_STATE|DuctSymbol||STATE|||State
36|4|2300|Duct|Point||fme_feature_type|VW_GC_DUCTF_S_4|Table|GC_NETELEM|JOB_STATE|TEXT|10|Job State|JOB.JOB_STATE->REF_JOB_STATE.JOB_STATE|REF_JOB_STATE|DuctSymbol||JOBSTATE|||Job State
37|4|2300|Duct|Point||fme_feature_type|VW_GC_DUCTF_S_4|Table|GC_NETELEM|LOCATION|TEXT|128|Location|||DuctSymbol||LOCATION|||Location
38|4|2300|Duct|Point||fme_feature_type|VW_GC_DUCTF_S_4|Table|GC_NETELEM|MIN_MATERIAL|TEXT|80|Primary MIN|||DuctSymbol||PARTNUMBER|||Part Number
39|4|2300|Duct|Point||fme_feature_type|VW_GC_DUCTF_S_4|Table|GC_NETELEM|OWNERSHIP|TEXT|30|Ownership|QUERY.OWNERSHIP->REF_OWNERSHIP|REF_OWNERSHIP|DuctSymbol||OWNER|||Owner
40|4|2300|Duct|Point||fme_feature_type|VW_GC_DUCTF_S_4|Table|GC_NETELEM|SAPOBJECTKEY|TEXT|50|SAP Object Key|||DuctSymbol||SAPOBJECTKEY|SAP Object Key||
41|4|2300|Duct|Point||fme_feature_type|VW_GC_DUCTF_S_4|Table|GC_NETELEM|SWITCH_CENTRE_CLLI|TEXT|25|Exchange Name|||DuctSymbol||CLLI|||CLLI
42|4|2300|Duct|Point||fme_feature_type|VW_GC_DUCTF_S_4|Table|GC_NETELEM|YEAR_PLACED|TEXT|4|Year of Placement|||DuctSymbol||INSTALLATIONDATE|||Installation Date
43|5|2400|Formation|Polyline||fme_feature_type|VW_GC_FORMFROM_L_5|Table|COMPUNIT_N|CU|TEXT|80|CU|||DuctFormation||CU|||CU
44|5|2400|Formation|Polyline||fme_feature_type|VW_GC_FORMFROM_L_5|Table|GC_FORM|BEND_DEGREE|LONG||Angle of Bend|||DuctFormation|||||
45|5|2400|Formation|Polyline||fme_feature_type|VW_GC_FORMFROM_L_5|Table|GC_FORM|BEND_RADIUS|DOUBLE||Radius of Bend|||DuctFormation|||||
46|5|2400|Formation|Polyline||fme_feature_type|VW_GC_FORMFROM_L_5|Table|GC_FORM|DUCT_SIZE|LONG||Duct Size|||DuctFormation||DUCTSIZE|||Duct Size
47|5|2400|Formation|Polyline||fme_feature_type|VW_GC_FORMFROM_L_5|Table|GC_FORM|FEATURE_TYPE|TEXT|50|Feature Type|FORMATION.FEATURE_TYPE->REF_FORM_TYPES.FEATURE_TYPE Queries|REF_FORM_TYPES|DuctFormation|||||
48|5|2400|Formation|Polyline||fme_feature_type|VW_GC_FORMFROM_L_5|Table|GC_FORM|GROUP_SEQ|LONG||Group Sequence ID|||DuctFormation|||||
49|5|2400|Formation|Polyline||fme_feature_type|VW_GC_FORMFROM_L_5|Table|GC_FORM|MATERIAL|TEXT|20|Material|||DuctFormation||MATERIAL|||Material
50|5|2400|Formation|Polyline||fme_feature_type|VW_GC_FORMFROM_L_5|Table|GC_FORM|NOTES|TEXT|2550|Notes|||DuctFormation||COMMENTS|||Comments
51|5|2400|Formation|Polyline||fme_feature_type|VW_GC_FORMFROM_L_5|Table|GC_FORM|NUM_DUCTS|LONG||Nbr of Ducts|||DuctFormation||NUMBEROFDUCTS|||Number of Ducts
52|5|2400|Formation|Polyline||fme_feature_type|VW_GC_FORMFROM_L_5|Table|GC_FORM|NUM_SPARE|LONG||Nbr of Spare Ducts|||DuctFormation||NUMBEROFSPAREDUCTS|||Number of Spare Ducts
53|5|2400|Formation|Polyline||fme_feature_type|VW_GC_FORMFROM_L_5|Table|GC_FORM|ORIENTATION|TEXT|3|Orientation (H-V)|FORMATION.ORIENTATION->REF_DUCT_ORIENTATION.ORIENTATION|REF_DUCT_ORIENTATION|DuctFormation|||||
54|5|2400|Formation|Polyline||fme_feature_type|VW_GC_FORMFROM_L_5|Table|GC_FORM|SOLID|TEXT|3|Solid Connector|||DuctFormation|||||
55|5|2400|Formation|Polyline||fme_feature_type|VW_GC_FORMFROM_L_5|Table|GC_FORM|STALE_FLAG_FROM|LONG||State of IN Graphic|||DuctFormation||STATEINGRAPHIC|||State IN Graphic
56|5|2400|Formation|Polyline||fme_feature_type|VW_GC_FORMFROM_L_5|Table|GC_FORM|STALE_FLAG_TO|LONG||State of OUT Graphic|||DuctFormation||STATEOUTGRAPHIC|||State OUT Graphic
57|5|2400|Formation|Polyline||fme_feature_type|VW_GC_FORMFROM_L_5|Table|GC_FORMFROM_L|G3E_FID|LONG||GComms Feature ID|||DuctFormation||G3E_FID|||G3E_FID
58|5|2400|Formation|Polyline||fme_feature_type|VW_GC_FORMFROM_L_5|Table|GC_FORMFROM_L|G3E_FNO|LONG||G3E_FNO|||DuctFormation||G3E_FNO|G3E_FNO||
59|5|2400|Formation|Polyline||fme_feature_type|VW_GC_FORMFROM_L_5|Table|GC_FORMFROM_L|SHAPE|SDO_GEOMETRY||GComms Geometry|||DuctFormation||SHAPE|||Shape
60|5|2400|Formation|Polyline||fme_feature_type|VW_GC_FORMFROM_L_5|Table|GC_NETELEM|FEATURE_STATE|TEXT|10|Feature State|QUERY.FEATURE_STATE->REF_FEATURESTATE|REF_FEATURE_STATE|DuctFormation|||||
61|5|2400|Formation|Polyline||fme_feature_type|VW_GC_FORMFROM_L_5|Table|GC_NETELEM|JOB_STATE|TEXT|10|Job State|JOB.JOB_STATE->REF_JOB_STATE.JOB_STATE|REF_JOB_STATE|DuctFormation|||||
62|5|2400|Formation|Polyline||fme_feature_type|VW_GC_FORMFROM_L_5|Table|GC_NETELEM|LOCATION|TEXT|128|Location|||DuctFormation|||||
63|5|2400|Formation|Polyline||fme_feature_type|VW_GC_FORMFROM_L_5|Table|GC_NETELEM|MIN_MATERIAL|TEXT|80|Primary MIN|||DuctFormation|||||
64|5|2400|Formation|Polyline||fme_feature_type|VW_GC_FORMFROM_L_5|Table|GC_NETELEM|OWNERSHIP|TEXT|30|Ownership|QUERY.OWNERSHIP->REF_OWNERSHIP|REF_OWNERSHIP|DuctFormation|||||
65|5|2400|Formation|Polyline||fme_feature_type|VW_GC_FORMFROM_L_5|Table|GC_NETELEM|SWITCH_CENTRE_CLLI|TEXT|25|Exchange Name|||DuctFormation|||||
66|5|2400|Formation|Polyline||fme_feature_type|VW_GC_FORMFROM_L_5|Table|GC_NETELEM|YEAR_PLACED|TEXT|4|Year of Placement|||DuctFormation|||||
67|6|2700|Joint Pit|Point||fme_feature_type|VW_GC_MANHL_S_6|Table|COMPUNIT_N|CU|TEXT|80|CU|||Structure|2|CU|||CU
68|6|2700|Joint Pit|Point||fme_feature_type|VW_GC_MANHL_S_6|Table|GC_MANHL|COVER_DIAMETER|DOUBLE||Cover Diameter|MANHOLE.COVER_DIAMETER->REF_MANHL_FRAME_COVER.COVER_DIAMETER|REF_MANHL_FRAME_COVER|Structure|2||||
69|6|2700|Joint Pit|Point||fme_feature_type|VW_GC_MANHL_S_6|Table|GC_MANHL|COVER_TYPE|TEXT|5|Cover Type|MANHOLE.COVER_TYPE->REF_MANHL_FRAME_COVER.COVER_TYPE|REF_MANHL_FRAME_COVER|Structure|2||||
70|6|2700|Joint Pit|Point||fme_feature_type|VW_GC_MANHL_S_6|Table|GC_MANHL|DESCRIPTION|TEXT|50|Description|MANHOLE.DESCRIPTION->REF_MANHL.DESCRIPTION|REF_MANHL|Structure|2|MATERIAL|||Material
71|6|2700|Joint Pit|Point||fme_feature_type|VW_GC_MANHL_S_6|Table|GC_MANHL|FEATURE_TYPE|TEXT|50|Feature Type|MANHOLE.FEATURE_TYPE->REF_MANHL_TYPES.FEATURE_TYPE Queries|REF_MANHL_TYPES|Structure|2|MODELNUMBER|||Model Number
72|6|2700|Joint Pit|Point||fme_feature_type|VW_GC_MANHL_S_6|Table|GC_MANHL|FRAME_SIZE|DOUBLE||Frame Size|MANHOLE.FRAME_SIZE->REF_MANHL_FRAME_COVER.FRAME_SIZE|REF_MANHL_FRAME_COVER|Structure|2||||
73|6|2700|Joint Pit|Point||fme_feature_type|VW_GC_MANHL_S_6|Table|GC_MANHL|FRAME_TYPE|TEXT|8|Frame Type|MANHOLE.FRAME_TYPE->REF_MANHL_FRAME_COVER.FRAME_TYPE|REF_MANHL_FRAME_COVER|Structure|2||||
74|6|2700|Joint Pit|Point||fme_feature_type|VW_GC_MANHL_S_6|Table|GC_MANHL|HEIGHT|DOUBLE||Height|MANHOLE.HEIGHT->REF_MANHL.HEIGHT|REF_MANHL|Structure|2|HEIGHT|||Height
75|6|2700|Joint Pit|Point||fme_feature_type|VW_GC_MANHL_S_6|Table|GC_MANHL|LENGTH|DOUBLE||Length|MANHOLE.LENGTH->REF_MANHL.LENGTH|REF_MANHL|Structure|2|LENGTH|||Length
76|6|2700|Joint Pit|Point||fme_feature_type|VW_GC_MANHL_S_6|Table|GC_MANHL|NUMBR|TEXT|45|Joint Pit Name|||Structure|2|COMMENTS|||Comments
77|6|2700|Joint Pit|Point||fme_feature_type|VW_GC_MANHL_S_6|Table|GC_MANHL|ROUTE|TEXT|10|Route|||Structure|2||||
78|6|2700|Joint Pit|Point||fme_feature_type|VW_GC_MANHL_S_6|Table|GC_MANHL|WIDTH|DOUBLE||Width|MANHOLE.WIDTH->REF_MANHL.WIDTH|REF_MANHL|Structure|2|WIDTH|||Width
79|6|2700|Joint Pit|Point||fme_feature_type|VW_GC_MANHL_S_6|Point|GC_MANHL_S|ALIGNMENT|DOUBLE||Alignment|||Structure|2|SYMBOLROTATION|||Symbol Rotation
80|6|2700|Joint Pit|Point||fme_feature_type|VW_GC_MANHL_S_6|Point|GC_MANHL_S|G3E_FID|LONG||GComms Feature ID|||Structure|2|G3E_FID|||G3E_FID
81|6|2700|Joint Pit|Point||fme_feature_type|VW_GC_MANHL_S_6|Point|GC_MANHL_S|G3E_FNO|LONG||G3E_FNO|||Structure|2|G3E_FNO|G3E_FNO||
82|6|2700|Joint Pit|Point||fme_feature_type|VW_GC_MANHL_S_6|Point|GC_MANHL_S|SHAPE|SDO_GEOMETRY||GComms Geometry|||Structure|2|SHAPE|||Shape
83|6|2700|Joint Pit|Point||fme_feature_type|VW_GC_MANHL_S_6|Label|GC_MANHL_T|SHAPE|SDO_GEOMETRY||GComms Geometry|||Structure|2||||
84|6|2700|Joint Pit|Point||fme_feature_type|VW_GC_MANHL_S_6|Table|GC_NETELEM|FEATURE_STATE|TEXT|10|Feature State|QUERY.FEATURE_STATE->REF_FEATURESTATE|REF_FEATURE_STATE|Structure|2|STATE|||State
85|6|2700|Joint Pit|Point||fme_feature_type|VW_GC_MANHL_S_6|Table|GC_NETELEM|JOB_STATE|TEXT|10|Job State|JOB.JOB_STATE->REF_JOB_STATE.JOB_STATE|REF_JOB_STATE|Structure|2|JOBSTATE|||Job State
86|6|2700|Joint Pit|Point||fme_feature_type|VW_GC_MANHL_S_6|Table|GC_NETELEM|LOCATION|TEXT|128|Location|||Structure|2|LOCATION|||Location
87|6|2700|Joint Pit|Point||fme_feature_type|VW_GC_MANHL_S_6|Table|GC_NETELEM|MIN_MATERIAL|TEXT|80|Primary MIN|||Structure|2|PARTNUMBER|||Part Number
88|6|2700|Joint Pit|Point||fme_feature_type|VW_GC_MANHL_S_6|Table|GC_NETELEM|OWNERSHIP|TEXT|30|Ownership|QUERY.OWNERSHIP->REF_OWNERSHIP|REF_OWNERSHIP|Structure|2|OWNER|||Owner
89|6|2700|Joint Pit|Point||fme_feature_type|VW_GC_MANHL_S_6|Table|GC_NETELEM|SAPOBJECTKEY|TEXT|50|SAP Object Key|||Structure|2|SAPOBJECTKEY|SAP Object Key||
90|6|2700|Joint Pit|Point||fme_feature_type|VW_GC_MANHL_S_6|Table|GC_NETELEM|SWITCH_CENTRE_CLLI|TEXT|25|Exchange Name|||Structure|2|CLLI|||CLLI
91|6|2700|Joint Pit|Point||fme_feature_type|VW_GC_MANHL_S_6|Table|GC_NETELEM|YEAR_PLACED|TEXT|4|Year of Placement|||Structure|2|INSTALLATIONDATE|||Installation Date
92|11|7200|Fiber Cable|Polyline||fme_feature_type|VW_GC_FCBL_L_11|Table|COMPUNIT_N|CU|TEXT|80|CU|||FiberCable|1|CU|||CU
93|11|7200|Fiber Cable|Polyline||fme_feature_type|VW_GC_FCBL_L_11|Table|GC_FCBL|ALPHA_CODE|TEXT|20|Alpha Code|CABLE FIBER.ALPHA_CODE->REF_FCBL.ALPHA_CODE|REF_FCBL|FiberCable|1||||
94|11|7200|Fiber Cable|Polyline||fme_feature_type|VW_GC_FCBL_L_11|Table|GC_FCBL|ARMOUR|TEXT|20|Armour Type|CABLE FIBER.ARMOUR->REF_FCBL.ARMOUR|REF_FCBL|FiberCable|1||||
95|11|7200|Fiber Cable|Polyline||fme_feature_type|VW_GC_FCBL_L_11|Table|GC_FCBL|COPPER_SIZE|LONG||Copper Size|CABLE FIBER.COPPER_SIZE->REF_FCBL.COPPER_SIZE|REF_FCBL|FiberCable|1||||
96|11|7200|Fiber Cable|Polyline||fme_feature_type|VW_GC_FCBL_L_11|Table|GC_FCBL|DESIGN_TYPE|TEXT|16|Design Type|CABLE FIBER.DESIGN_TYPE->REF_FCBL.DESIGN_TYPE|REF_FCBL|FiberCable|1|DESIGNTYPE|||Design Type
97|11|7200|Fiber Cable|Polyline||fme_feature_type|VW_GC_FCBL_L_11|Table|GC_FCBL|DIAMETER|DOUBLE||Cable Diameter|||FiberCable|1|DIAMETER|||Diameter
98|11|7200|Fiber Cable|Polyline||fme_feature_type|VW_GC_FCBL_L_11|Table|GC_FCBL|FIBER_MODE|TEXT|8|Mode|||FiberCable|1|FIBERMODE|||Fiber Mode
99|11|7200|Fiber Cable|Polyline||fme_feature_type|VW_GC_FCBL_L_11|Table|GC_FCBL|FIBER_SIZE|LONG||Fiber Size|CABLE FIBER.FIBER_SIZE->REF_FCBL.FIBER_SIZE|REF_FCBL|FiberCable|1||||
100|11|7200|Fiber Cable|Polyline||fme_feature_type|VW_GC_FCBL_L_11|Table|GC_FCBL|GAUGE|LONG||Gauge|CABLE FIBER.GAUGE->REF_FCBL.GAUGE|REF_FCBL|FiberCable|1||||
101|11|7200|Fiber Cable|Polyline||fme_feature_type|VW_GC_FCBL_L_11|Table|GC_FCBL|SHEATH|TEXT|35|Cable Sheath|CABLE FIBER.SHEATH->REF_FCBL.SHEATH|REF_FCBL|FiberCable|1|SHEATHTYPE|||Sheath Type
102|11|7200|Fiber Cable|Polyline||fme_feature_type|VW_GC_FCBL_L_11|Table|GC_FCBL|TAG_ID|TEXT|24|Cable ID|||FiberCable|1|TAGID|||Tag ID
103|11|7200|Fiber Cable|Polyline||fme_feature_type|VW_GC_FCBL_L_11|Table|GC_FCBL|TOTAL_LENGTH|LONG||Total Length|||FiberCable|1|CALCULATEDLENGTH|||Calculated Length
104|11|7200|Fiber Cable|Polyline||fme_feature_type|VW_GC_FCBL_L_11|Table|GC_FCBL|TOTAL_SIZE|LONG||Total Size|||FiberCable|1|NUMBEROFFIBERS|||Number of Fibers 
105|11|7200|Fiber Cable|Polyline||fme_feature_type|VW_GC_FCBL_L_11|Table|GC_FCBL|USAGE|TEXT|8|Cable Usage|CABLE FIBER.USAGE-->REF_SERVICE_CODE.USAGE_ENG|REF_SERVICE_CODE|FiberCable|1|USAGE|||Usage
106|11|7200|Fiber Cable|Polyline||fme_feature_type|VW_GC_FCBL_L_11|Polyline|GC_FCBL_L|G3E_FID|LONG||GComms Feature ID|||FiberCable|1|G3E_FID|||G3E_FID
107|11|7200|Fiber Cable|Polyline||fme_feature_type|VW_GC_FCBL_L_11|Polyline|GC_FCBL_L|G3E_FNO|LONG||G3E_FNO|||FiberCable|1|G3E_FNO|G3E_FNO||
108|11|7200|Fiber Cable|Polyline||fme_feature_type|VW_GC_FCBL_L_11|Polyline|GC_FCBL_L|PLACEMENT|TEXT|12|Cable Placement Type|||FiberCable|1||||
109|11|7200|Fiber Cable|Polyline||fme_feature_type|VW_GC_FCBL_L_11|Polyline|GC_FCBL_L|SECTION_LENGTH|DOUBLE||Section Length|||FiberCable|1|MEASUREDLENGTH|||Measured Length
110|11|7200|Fiber Cable|Polyline||fme_feature_type|VW_GC_FCBL_L_11|Polyline|GC_FCBL_L|SEGMENT_START_LOCATION|DOUBLE||Section Start Meas.|||FiberCable|1||||
111|11|7200|Fiber Cable|Polyline||fme_feature_type|VW_GC_FCBL_L_11|Polyline|GC_FCBL_L|SERVICE_CODE|TEXT|10|Service Code|||FiberCable|1||||
112|11|7200|Fiber Cable|Polyline||fme_feature_type|VW_GC_FCBL_L_11|Polyline|GC_FCBL_L|SHAPE|SDO_GEOMETRY||GComms Geometry|||FiberCable|1|SHAPE|||Shape
113|11|7200|Fiber Cable|Polyline||fme_feature_type|VW_GC_FCBL_L_11|Polyline|GC_FCBL_L|SHEATH_END|LONG||Sheath End|||FiberCable|1||||
114|11|7200|Fiber Cable|Polyline||fme_feature_type|VW_GC_FCBL_L_11|Polyline|GC_FCBL_L|SHEATH_START|LONG||Sheath Start|||FiberCable|1||||
115|11|7200|Fiber Cable|Polyline||fme_feature_type|VW_GC_FCBL_L_11|Table|GC_NETELEM|FEATURE_STATE|TEXT|10|Feature State|QUERY.FEATURE_STATE->REF_FEATURESTATE|REF_FEATURE_STATE|FiberCable|1|STATE|||State
116|11|7200|Fiber Cable|Polyline||fme_feature_type|VW_GC_FCBL_L_11|Table|GC_NETELEM|JOB_STATE|TEXT|10|Job State|JOB.JOB_STATE->REF_JOB_STATE.JOB_STATE|REF_JOB_STATE|FiberCable|1|JOBSTATE|||Job State
117|11|7200|Fiber Cable|Polyline||fme_feature_type|VW_GC_FCBL_L_11|Table|GC_NETELEM|LOCATION|TEXT|128|Location|||FiberCable|1|LOCATION|||Location
118|11|7200|Fiber Cable|Polyline||fme_feature_type|VW_GC_FCBL_L_11|Table|GC_NETELEM|MIN_MATERIAL|TEXT|80|Primary MIN|||FiberCable|1|PARTNUMBER|||Part Number
119|11|7200|Fiber Cable|Polyline||fme_feature_type|VW_GC_FCBL_L_11|Table|GC_NETELEM|OWNERSHIP|TEXT|30|Ownership|QUERY.OWNERSHIP->REF_OWNERSHIP|REF_OWNERSHIP|FiberCable|1|OWNER|||Owner
120|11|7200|Fiber Cable|Polyline||fme_feature_type|VW_GC_FCBL_L_11|Table|GC_NETELEM|SAPOBJECTKEY|TEXT|50|SAP Object Key|||FiberCable|1|SAPOBJECTKEY|SAP Object Key||
121|11|7200|Fiber Cable|Polyline||fme_feature_type|VW_GC_FCBL_L_11|Table|GC_NETELEM|SWITCH_CENTRE_CLLI|TEXT|25|Exchange Name|||FiberCable|1|CLLI|||CLLI
122|11|7200|Fiber Cable|Polyline||fme_feature_type|VW_GC_FCBL_L_11|Table|GC_NETELEM|YEAR_PLACED|TEXT|4|Year of Placement|||FiberCable|1|INSTALLATIONDATE|||Installation Date
123|12|7200|Fiber Cable|Polyline||fme_feature_type|VW_GC_FCBL_L_12|Table|COMPUNIT_N|CU|TEXT|80|CU|||FiberCable|2|CU|||CU
124|12|7200|Fiber Cable|Polyline||fme_feature_type|VW_GC_FCBL_L_12|Table|GC_FCBL|ALPHA_CODE|TEXT|20|Alpha Code|CABLE FIBER.ALPHA_CODE->REF_FCBL.ALPHA_CODE|REF_FCBL|FiberCable|2||||
125|12|7200|Fiber Cable|Polyline||fme_feature_type|VW_GC_FCBL_L_12|Table|GC_FCBL|ARMOUR|TEXT|20|Armour Type|CABLE FIBER.ARMOUR->REF_FCBL.ARMOUR|REF_FCBL|FiberCable|2||||
126|12|7200|Fiber Cable|Polyline||fme_feature_type|VW_GC_FCBL_L_12|Table|GC_FCBL|COPPER_SIZE|LONG||Copper Size|CABLE FIBER.COPPER_SIZE->REF_FCBL.COPPER_SIZE|REF_FCBL|FiberCable|2||||
127|12|7200|Fiber Cable|Polyline||fme_feature_type|VW_GC_FCBL_L_12|Table|GC_FCBL|DESIGN_TYPE|TEXT|16|Design Type|CABLE FIBER.DESIGN_TYPE->REF_FCBL.DESIGN_TYPE|REF_FCBL|FiberCable|2|DESIGNTYPE|||Design Type
128|12|7200|Fiber Cable|Polyline||fme_feature_type|VW_GC_FCBL_L_12|Table|GC_FCBL|DIAMETER|DOUBLE||Cable Diameter|||FiberCable|2|DIAMETER|||Diameter
129|12|7200|Fiber Cable|Polyline||fme_feature_type|VW_GC_FCBL_L_12|Table|GC_FCBL|FIBER_MODE|TEXT|8|Mode|||FiberCable|2|FIBERMODE|||Fiber Mode
130|12|7200|Fiber Cable|Polyline||fme_feature_type|VW_GC_FCBL_L_12|Table|GC_FCBL|FIBER_SIZE|LONG||Fiber Size|CABLE FIBER.FIBER_SIZE->REF_FCBL.FIBER_SIZE|REF_FCBL|FiberCable|2||||
131|12|7200|Fiber Cable|Polyline||fme_feature_type|VW_GC_FCBL_L_12|Table|GC_FCBL|GAUGE|LONG||Gauge|CABLE FIBER.GAUGE->REF_FCBL.GAUGE|REF_FCBL|FiberCable|2||||
132|12|7200|Fiber Cable|Polyline||fme_feature_type|VW_GC_FCBL_L_12|Table|GC_FCBL|SHEATH|TEXT|35|Cable Sheath|CABLE FIBER.SHEATH->REF_FCBL.SHEATH|REF_FCBL|FiberCable|2|SHEATHTYPE|||Sheath Type
133|12|7200|Fiber Cable|Polyline||fme_feature_type|VW_GC_FCBL_L_12|Table|GC_FCBL|TAG_ID|TEXT|24|Cable ID|||FiberCable|2|TAGID|||Tag ID
134|12|7200|Fiber Cable|Polyline||fme_feature_type|VW_GC_FCBL_L_12|Table|GC_FCBL|TOTAL_LENGTH|LONG||Total Length|||FiberCable|2|CALCULATEDLENGTH|||Calculated Length
135|12|7200|Fiber Cable|Polyline||fme_feature_type|VW_GC_FCBL_L_12|Table|GC_FCBL|TOTAL_SIZE|LONG||Total Size|||FiberCable|2|NUMBEROFFIBERS|||Number of Fibers 
136|12|7200|Fiber Cable|Polyline||fme_feature_type|VW_GC_FCBL_L_12|Table|GC_FCBL|USAGE|TEXT|8|Cable Usage|CABLE FIBER.USAGE-->REF_SERVICE_CODE.USAGE_ENG|REF_SERVICE_CODE|FiberCable|2|USAGE|||Usage
137|12|7200|Fiber Cable|Polyline||fme_feature_type|VW_GC_FCBL_L_12|Polyline|GC_FCBL_L|G3E_FID|LONG||GComms Feature ID|||FiberCable|2|G3E_FID|||G3E_FID
138|12|7200|Fiber Cable|Polyline||fme_feature_type|VW_GC_FCBL_L_12|Polyline|GC_FCBL_L|G3E_FNO|LONG||G3E_FNO|||FiberCable|2|G3E_FNO|G3E_FNO||
139|12|7200|Fiber Cable|Polyline||fme_feature_type|VW_GC_FCBL_L_12|Polyline|GC_FCBL_L|PLACEMENT|TEXT|12|Cable Placement Type|||FiberCable|2||||
140|12|7200|Fiber Cable|Polyline||fme_feature_type|VW_GC_FCBL_L_12|Polyline|GC_FCBL_L|SECTION_LENGTH|DOUBLE||Section Length|||FiberCable|2|MEASUREDLENGTH|||Measured Length
141|12|7200|Fiber Cable|Polyline||fme_feature_type|VW_GC_FCBL_L_12|Polyline|GC_FCBL_L|SEGMENT_START_LOCATION|DOUBLE||Section Start Meas.|||FiberCable|2||||
142|12|7200|Fiber Cable|Polyline||fme_feature_type|VW_GC_FCBL_L_12|Polyline|GC_FCBL_L|SERVICE_CODE|TEXT|10|Service Code|||FiberCable|2||||
143|12|7200|Fiber Cable|Polyline||fme_feature_type|VW_GC_FCBL_L_12|Polyline|GC_FCBL_L|SHAPE|SDO_GEOMETRY||GComms Geometry|||FiberCable|2|SHAPE|||Shape
144|12|7200|Fiber Cable|Polyline||fme_feature_type|VW_GC_FCBL_L_12|Polyline|GC_FCBL_L|SHEATH_END|LONG||Sheath End|||FiberCable|2||||
145|12|7200|Fiber Cable|Polyline||fme_feature_type|VW_GC_FCBL_L_12|Polyline|GC_FCBL_L|SHEATH_START|LONG||Sheath Start|||FiberCable|2||||
146|12|7200|Fiber Cable|Polyline||fme_feature_type|VW_GC_FCBL_L_12|Table|GC_NETELEM|FEATURE_STATE|TEXT|10|Feature State|QUERY.FEATURE_STATE->REF_FEATURESTATE|REF_FEATURE_STATE|FiberCable|2|STATE|||State
147|12|7200|Fiber Cable|Polyline||fme_feature_type|VW_GC_FCBL_L_12|Table|GC_NETELEM|JOB_STATE|TEXT|10|Job State|JOB.JOB_STATE->REF_JOB_STATE.JOB_STATE|REF_JOB_STATE|FiberCable|2|JOBSTATE|||Job State
148|12|7200|Fiber Cable|Polyline||fme_feature_type|VW_GC_FCBL_L_12|Table|GC_NETELEM|LOCATION|TEXT|128|Location|||FiberCable|2|LOCATION|||Location
149|12|7200|Fiber Cable|Polyline||fme_feature_type|VW_GC_FCBL_L_12|Table|GC_NETELEM|MIN_MATERIAL|TEXT|80|Primary MIN|||FiberCable|2|PARTNUMBER|||Part Number
150|12|7200|Fiber Cable|Polyline||fme_feature_type|VW_GC_FCBL_L_12|Table|GC_NETELEM|OWNERSHIP|TEXT|30|Ownership|QUERY.OWNERSHIP->REF_OWNERSHIP|REF_OWNERSHIP|FiberCable|2|OWNER|||Owner
151|12|7200|Fiber Cable|Polyline||fme_feature_type|VW_GC_FCBL_L_12|Table|GC_NETELEM|SAPOBJECTKEY|TEXT|50|SAP Object Key|||FiberCable|2|SAPOBJECTKEY|SAP Object Key||
152|12|7200|Fiber Cable|Polyline||fme_feature_type|VW_GC_FCBL_L_12|Table|GC_NETELEM|SWITCH_CENTRE_CLLI|TEXT|25|Exchange Name|||FiberCable|2|CLLI|||CLLI
153|12|7200|Fiber Cable|Polyline||fme_feature_type|VW_GC_FCBL_L_12|Table|GC_NETELEM|YEAR_PLACED|TEXT|4|Year of Placement|||FiberCable|2|INSTALLATIONDATE|||Installation Date
154|13|7300|Fiber Wire|Polyline||fme_feature_type|VW_GC_FWIR_L_13|Table|COMPUNIT_N|CU|TEXT|80|CU|||FiberCable|4|CU|||CU
155|13|7300|Fiber Wire|Polyline||fme_feature_type|VW_GC_FWIR_L_13|Table|GC_FWIR|ALPHA_CODE|TEXT|20|Alpha Code|WIRE FIBER.ALPHA_CODE->REF_FWIR.ALPHA_CODE|REF_FWIR|FiberCable|4|ALPHACODE|||Alpha Code
156|13|7300|Fiber Wire|Polyline||fme_feature_type|VW_GC_FWIR_L_13|Table|GC_FWIR|ARMOUR|TEXT|20|Armour Type|WIRE FIBER.ARMOUR->REF_FWIR.ARMOUR|REF_FWIR|FiberCable|4||||
157|13|7300|Fiber Wire|Polyline||fme_feature_type|VW_GC_FWIR_L_13|Table|GC_FWIR|DIAMETER|DOUBLE||Cable Diameter|||FiberCable|4|DIAMETER|||Diameter
158|13|7300|Fiber Wire|Polyline||fme_feature_type|VW_GC_FWIR_L_13|Table|GC_FWIR|SHEATH|TEXT|35|Cable Sheath|WIRE FIBER.SHEATH->REF_FWIR.SHEATH|REF_FWIR|FiberCable|4|SHEATHTYPE|||Sheath Type
159|13|7300|Fiber Wire|Polyline||fme_feature_type|VW_GC_FWIR_L_13|Table|GC_FWIR|TOTAL_LENGTH|LONG||Total Length|||FiberCable|4|CALCULATEDLENGTH|||Calculated Length
160|13|7300|Fiber Wire|Polyline||fme_feature_type|VW_GC_FWIR_L_13|Table|GC_FWIR|TOTAL_SIZE|LONG||Total Size|||FiberCable|4|NUMBEROFFIBERS|||Number of Fibers 
161|13|7300|Fiber Wire|Polyline||fme_feature_type|VW_GC_FWIR_L_13|Table|GC_FWIR|USAGE|TEXT|8|Cable Usage|WIRE FIBER.USAGE-->REF_SERVICE_CODE.USAGE_ENG|REF_SERVICE_CODE|FiberCable|4|USAGE|||Usage
162|13|7300|Fiber Wire|Polyline||fme_feature_type|VW_GC_FWIR_L_13|Table|GC_FWIR|WIRE_ID|TEXT|24|Wire ID|||FiberCable|4|REELID|||Reel ID
163|13|7300|Fiber Wire|Polyline||fme_feature_type|VW_GC_FWIR_L_13|Polyline|GC_FWIR_L|G3E_FID|LONG||GComms Feature ID|||FiberCable|4|G3E_FID|||G3E_FID
164|13|7300|Fiber Wire|Polyline||fme_feature_type|VW_GC_FWIR_L_13|Polyline|GC_FWIR_L|G3E_FNO|LONG||G3E_FNO|||FiberCable|4|G3E_FNO|G3E_FNO||
165|13|7300|Fiber Wire|Polyline||fme_feature_type|VW_GC_FWIR_L_13|Polyline|GC_FWIR_L|PLACEMENT|TEXT|12|Cable Placement Type|||FiberCable|4||||
166|13|7300|Fiber Wire|Polyline||fme_feature_type|VW_GC_FWIR_L_13|Polyline|GC_FWIR_L|SECTION_LENGTH|DOUBLE||Section Length|||FiberCable|4|MEASUREDLENGTH|||Measured Length
167|13|7300|Fiber Wire|Polyline||fme_feature_type|VW_GC_FWIR_L_13|Polyline|GC_FWIR_L|SEGMENT_START_LOCATION|DOUBLE||Section Start Meas.|||FiberCable|4||||
168|13|7300|Fiber Wire|Polyline||fme_feature_type|VW_GC_FWIR_L_13|Polyline|GC_FWIR_L|SERVICE_CODE|TEXT|10|Service Code|||FiberCable|4||||
169|13|7300|Fiber Wire|Polyline||fme_feature_type|VW_GC_FWIR_L_13|Polyline|GC_FWIR_L|SHAPE|SDO_GEOMETRY||GComms Geometry|||FiberCable|4|SHAPE|||Shape
170|13|7300|Fiber Wire|Polyline||fme_feature_type|VW_GC_FWIR_L_13|Table|GC_NETELEM|FEATURE_STATE|TEXT|10|Feature State|QUERY.FEATURE_STATE->REF_FEATURESTATE|REF_FEATURE_STATE|FiberCable|4|STATE|||State
171|13|7300|Fiber Wire|Polyline||fme_feature_type|VW_GC_FWIR_L_13|Table|GC_NETELEM|JOB_STATE|TEXT|10|Job State|JOB.JOB_STATE->REF_JOB_STATE.JOB_STATE|REF_JOB_STATE|FiberCable|4|JOBSTATE|||Job State
172|13|7300|Fiber Wire|Polyline||fme_feature_type|VW_GC_FWIR_L_13|Table|GC_NETELEM|LOCATION|TEXT|128|Location|||FiberCable|4|LOCATION|||Location
173|13|7300|Fiber Wire|Polyline||fme_feature_type|VW_GC_FWIR_L_13|Table|GC_NETELEM|MIN_MATERIAL|TEXT|80|Primary MIN|||FiberCable|4|PARTNUMBER|||Part Number
174|13|7300|Fiber Wire|Polyline||fme_feature_type|VW_GC_FWIR_L_13|Table|GC_NETELEM|OWNERSHIP|TEXT|30|Ownership|QUERY.OWNERSHIP->REF_OWNERSHIP|REF_OWNERSHIP|FiberCable|4|OWNER|||Owner
175|13|7300|Fiber Wire|Polyline||fme_feature_type|VW_GC_FWIR_L_13|Table|GC_NETELEM|SAPOBJECTKEY|TEXT|50|SAP Object Key|||FiberCable|4|SAPOBJECTKEY|SAP Object Key||
176|13|7300|Fiber Wire|Polyline||fme_feature_type|VW_GC_FWIR_L_13|Table|GC_NETELEM|SWITCH_CENTRE_CLLI|TEXT|25|Exchange Name|||FiberCable|4|CLLI|||CLLI
177|13|7300|Fiber Wire|Polyline||fme_feature_type|VW_GC_FWIR_L_13|Table|GC_NETELEM|YEAR_PLACED|TEXT|4|Year of Placement|||FiberCable|4|INSTALLATIONDATE|||Installation Date
178|15|11800|Fiber Splice Enclosure|Point||fme_feature_type|VW_GC_FSPLICE_S_15|Table|COMPUNIT_N|CU|TEXT|80|CU|||SpliceClosure|1|CU|||CU
179|15|11800|Fiber Splice Enclosure|Point||fme_feature_type|VW_GC_FSPLICE_S_15|Table|GC_FSPLICE|DESCRIPTION|TEXT|50|Description|FSPLICE.DESCRIPTION->REF_FSPLICE.DESCRIPTION|REF_FSPLICE|SpliceClosure|1|NAME|||Name
180|15|11800|Fiber Splice Enclosure|Point||fme_feature_type|VW_GC_FSPLICE_S_15|Table|GC_FSPLICE|ENCLOSURE_NAME|TEXT|40|Splice No|||SpliceClosure|1|SERIALNUMBER|||Serial Number
181|15|11800|Fiber Splice Enclosure|Point||fme_feature_type|VW_GC_FSPLICE_S_15|Table|GC_FSPLICE|FEATURE_TYPE|TEXT|80|NAME|||SpliceClosure|1||||
182|15|11800|Fiber Splice Enclosure|Point||fme_feature_type|VW_GC_FSPLICE_S_15|Table|GC_FSPLICE|MANUFACTURER|TEXT|50|Manufacturer|FSPLICE.MANUFACTURER->REF_FSPLICE.MANUFACTURER|REF_FSPLICE|SpliceClosure|1|MANUFACTURER|||Manufacturer
183|15|11800|Fiber Splice Enclosure|Point||fme_feature_type|VW_GC_FSPLICE_S_15|Table|GC_FSPLICE|MODEL|TEXT|50|Model|FSPLICE.MODEL->REF_FSPLICE.MODEL|REF_FSPLICE|SpliceClosure|1|MODELNUMBER|||Model Number
184|15|11800|Fiber Splice Enclosure|Point||fme_feature_type|VW_GC_FSPLICE_S_15|Table|GC_FSPLICE|PHYSICAL_TYPE|TEXT|50|Physical Type|FSPLICE.PHYSICAL_TYPE->REF_FSPLICE_PHYSICAL_TYPES.PHYSICAL_TYPE|REF_FSPLICE_PHYSICAL_TYPES|SpliceClosure|1|PLACEMENT|||Placement
185|15|11800|Fiber Splice Enclosure|Point||fme_feature_type|VW_GC_FSPLICE_S_15|Point|GC_FSPLICE_S|ALIGNMENT|DOUBLE||Alignment|||SpliceClosure|1|SYMBOLROTATION|||Symbol Rotation
186|15|11800|Fiber Splice Enclosure|Point||fme_feature_type|VW_GC_FSPLICE_S_15|Point|GC_FSPLICE_S|G3E_FID|LONG||GComms Feature ID|||SpliceClosure|1|G3E_FID|||G3E_FID
187|15|11800|Fiber Splice Enclosure|Point||fme_feature_type|VW_GC_FSPLICE_S_15|Point|GC_FSPLICE_S|G3E_FNO|LONG||G3E_FNO|||SpliceClosure|1|G3E_FNO|G3E_FNO||
188|15|11800|Fiber Splice Enclosure|Point||fme_feature_type|VW_GC_FSPLICE_S_15|Point|GC_FSPLICE_S|SHAPE|SDO_GEOMETRY||GComms Geometry|||SpliceClosure|1|SHAPE|||Shape
189|15|11800|Fiber Splice Enclosure|Point||fme_feature_type|VW_GC_FSPLICE_S_15|Table|GC_NETELEM|FEATURE_STATE|TEXT|10|Feature State|QUERY.FEATURE_STATE->REF_FEATURESTATE|REF_FEATURE_STATE|SpliceClosure|1|STATE|||State
190|15|11800|Fiber Splice Enclosure|Point||fme_feature_type|VW_GC_FSPLICE_S_15|Table|GC_NETELEM|JOB_STATE|TEXT|10|Job State|JOB.JOB_STATE->REF_JOB_STATE.JOB_STATE|REF_JOB_STATE|SpliceClosure|1|JOBSTATE|||Job State
191|15|11800|Fiber Splice Enclosure|Point||fme_feature_type|VW_GC_FSPLICE_S_15|Table|GC_NETELEM|LOCATION|TEXT|128|Location|||SpliceClosure|1|LOCATION|||Location
192|15|11800|Fiber Splice Enclosure|Point||fme_feature_type|VW_GC_FSPLICE_S_15|Table|GC_NETELEM|MIN_MATERIAL|TEXT|80|Primary MIN|||SpliceClosure|1|PARTNUMBER|||Part Number
193|15|11800|Fiber Splice Enclosure|Point||fme_feature_type|VW_GC_FSPLICE_S_15|Table|GC_NETELEM|OWNERSHIP|TEXT|30|Ownership|QUERY.OWNERSHIP->REF_OWNERSHIP|REF_OWNERSHIP|SpliceClosure|1|OWNER|||Owner
194|15|11800|Fiber Splice Enclosure|Point||fme_feature_type|VW_GC_FSPLICE_S_15|Table|GC_NETELEM|SAPOBJECTKEY|TEXT|50|SAP Object Key|||SpliceClosure|1|SAPOBJECTKEY|SAP Object Key||
195|15|11800|Fiber Splice Enclosure|Point||fme_feature_type|VW_GC_FSPLICE_S_15|Table|GC_NETELEM|SWITCH_CENTRE_CLLI|TEXT|25|Exchange Name|||SpliceClosure|1|CLLI|||CLLI
196|15|11800|Fiber Splice Enclosure|Point||fme_feature_type|VW_GC_FSPLICE_S_15|Table|GC_NETELEM|YEAR_PLACED|TEXT|4|Year of Placement|||SpliceClosure|1|INSTALLATIONDATE|||Installation Date
197|16|11900|Fiber Terminal|Point||fme_feature_type|VW_GC_FTERM_S_16|Table|COMPUNIT_N|CU|TEXT|80|CU|||Terminal|1|CU|||CU
198|16|11900|Fiber Terminal|Point||fme_feature_type|VW_GC_FTERM_S_16|Table|GC_FTERM|DESCRIPTION|TEXT|50|Description|FTERMINAL.DESCRIPTION->REF_FTERM.DESCRIPTION|REF_FTERM|Terminal|1|COMMENTS|||Comments
199|16|11900|Fiber Terminal|Point||fme_feature_type|VW_GC_FTERM_S_16|Table|GC_FTERM|FEATURE_TYPE|TEXT|50|Name|Fibre Terminal Type|REF_FTERM_TYPE|Terminal|1|NAME|||Name
200|16|11900|Fiber Terminal|Point||fme_feature_type|VW_GC_FTERM_S_16|Table|GC_FTERM|MANUFACTURER|TEXT|50|Manufacturer|FTERMINAL.MANUFACTURER->REF_FTERM.MANUFACTURER|REF_FTERM|Terminal|1|MANUFACTURER|||Manufacturer
201|16|11900|Fiber Terminal|Point||fme_feature_type|VW_GC_FTERM_S_16|Table|GC_FTERM|MODEL|TEXT|50|Model|FTERMINAL.MODEL->REF_FTERM.MODEL|REF_FTERM|Terminal|1|MODELNUMBER|||Model Number
202|16|11900|Fiber Terminal|Point||fme_feature_type|VW_GC_FTERM_S_16|Table|GC_FTERM|POSITION|LONG||Position Nbr|||Terminal|1|POSITION|||Position
203|16|11900|Fiber Terminal|Point||fme_feature_type|VW_GC_FTERM_S_16|Table|GC_FTERM|TERM_NO|TEXT|10|Termination Number|||Terminal|1|SERIALNUMBER|||Serial Number
204|16|11900|Fiber Terminal|Point||fme_feature_type|VW_GC_FTERM_S_16|Point|GC_FTERM_S|ALIGNMENT|DOUBLE||Alignment|||Terminal|1|SYMBOLROTATION|||Symbol Rotation
205|16|11900|Fiber Terminal|Point||fme_feature_type|VW_GC_FTERM_S_16|Point|GC_FTERM_S|G3E_FID|LONG||GComms Feature ID|||Terminal|1|G3E_FID|||G3E_FID
206|16|11900|Fiber Terminal|Point||fme_feature_type|VW_GC_FTERM_S_16|Point|GC_FTERM_S|G3E_FNO|LONG||G3E_FNO|||Terminal|1|G3E_FNO|G3E_FNO||
207|16|11900|Fiber Terminal|Point||fme_feature_type|VW_GC_FTERM_S_16|Point|GC_FTERM_S|SHAPE|SDO_GEOMETRY||GComms Geometry|||Terminal|1|SHAPE|||Shape
208|16|11900|Fiber Terminal|Point||fme_feature_type|VW_GC_FTERM_S_16|Table|GC_NETELEM|FEATURE_STATE|TEXT|10|Feature State|QUERY.FEATURE_STATE->REF_FEATURESTATE|REF_FEATURE_STATE|Terminal|1|STATE|||State
209|16|11900|Fiber Terminal|Point||fme_feature_type|VW_GC_FTERM_S_16|Table|GC_NETELEM|JOB_STATE|TEXT|10|Job State|JOB.JOB_STATE->REF_JOB_STATE.JOB_STATE|REF_JOB_STATE|Terminal|1|JOBSTATE|||Job State
210|16|11900|Fiber Terminal|Point||fme_feature_type|VW_GC_FTERM_S_16|Table|GC_NETELEM|LOCATION|TEXT|128|Location|||Terminal|1|LOCATION|||Location
211|16|11900|Fiber Terminal|Point||fme_feature_type|VW_GC_FTERM_S_16|Table|GC_NETELEM|MIN_MATERIAL|TEXT|80|Primary MIN|||Terminal|1|PARTNUMBER|||Part Number
212|16|11900|Fiber Terminal|Point||fme_feature_type|VW_GC_FTERM_S_16|Table|GC_NETELEM|OWNERSHIP|TEXT|30|Ownership|QUERY.OWNERSHIP->REF_OWNERSHIP|REF_OWNERSHIP|Terminal|1|OWNER|||Owner
213|16|11900|Fiber Terminal|Point||fme_feature_type|VW_GC_FTERM_S_16|Table|GC_NETELEM|SAPOBJECTKEY|TEXT|50|SAP Object Key|||Terminal|1|SAPOBJECTKEY|SAP Object Key||
214|16|11900|Fiber Terminal|Point||fme_feature_type|VW_GC_FTERM_S_16|Table|GC_NETELEM|SWITCH_CENTRE_CLLI|TEXT|25|Exchange Name|||Terminal|1|CLLI|||CLLI
215|16|11900|Fiber Terminal|Point||fme_feature_type|VW_GC_FTERM_S_16|Table|GC_NETELEM|YEAR_PLACED|TEXT|4|Year of Placement|||Terminal|1|INSTALLATIONDATE|||Installation Date
216|17|12000|Fiber ISP Connect|Point||fme_feature_type|VW_GC_ISPCONNECT_S_17|Table|COMPUNIT_N|CU|TEXT|80|CU|||FiberISPconnect||CU|||CU
217|17|12000|Fiber ISP Connect|Point||fme_feature_type|VW_GC_ISPCONNECT_S_17|Table|GC_ISPCONNECT|CLLI|TEXT|11|CLLI|||FiberISPconnect|||||
218|17|12000|Fiber ISP Connect|Point||fme_feature_type|VW_GC_ISPCONNECT_S_17|Table|GC_ISPCONNECT|DSA_DESIGN_TYPE|TEXT|5|DSA Admin. Type|||FiberISPconnect|||||
219|17|12000|Fiber ISP Connect|Point||fme_feature_type|VW_GC_ISPCONNECT_S_17|Table|GC_ISPCONNECT|DSA_ID|TEXT|15|DSA ID|||FiberISPconnect|||||
220|17|12000|Fiber ISP Connect|Point||fme_feature_type|VW_GC_ISPCONNECT_S_17|Table|GC_ISPCONNECT|ENCLOSURE|TEXT|20|Enclosure|||FiberISPconnect|||||
221|17|12000|Fiber ISP Connect|Point||fme_feature_type|VW_GC_ISPCONNECT_S_17|Table|GC_ISPCONNECT|FDI_TYPE|TEXT|20|FDI Type|||FiberISPconnect|||||
222|17|12000|Fiber ISP Connect|Point||fme_feature_type|VW_GC_ISPCONNECT_S_17|Table|GC_ISPCONNECT|FDZ_ID|TEXT|10|FDZ ID|||FiberISPconnect|||||
223|17|12000|Fiber ISP Connect|Point||fme_feature_type|VW_GC_ISPCONNECT_S_17|Table|GC_ISPCONNECT|MODEL|TEXT|50|Model|||FiberISPconnect||MODELNUMBER|||Model Number
224|17|12000|Fiber ISP Connect|Point||fme_feature_type|VW_GC_ISPCONNECT_S_17|Table|GC_ISPCONNECT|MOUNT_TYPE|TEXT|10|Mount Type|||FiberISPconnect|||||
225|17|12000|Fiber ISP Connect|Point||fme_feature_type|VW_GC_ISPCONNECT_S_17|Table|GC_ISPCONNECT|NAME|TEXT|80|Name|||FiberISPconnect||NAME|||Name
226|17|12000|Fiber ISP Connect|Point||fme_feature_type|VW_GC_ISPCONNECT_S_17|Table|GC_ISPCONNECT|NBR_OF_CONNECTOR_IN|LONG||Nbr of IN Connectors|||FiberISPconnect||INPUTPORTS|||Input Ports
227|17|12000|Fiber ISP Connect|Point||fme_feature_type|VW_GC_ISPCONNECT_S_17|Table|GC_ISPCONNECT|NBR_OF_CONNECTOR_OUT|LONG||Nbr of OUT Connectors|||FiberISPconnect||OUTPUTPORTS|||Output Ports
228|17|12000|Fiber ISP Connect|Point||fme_feature_type|VW_GC_ISPCONNECT_S_17|Table|GC_ISPCONNECT|NBR_OF_MOUNTING_COLUMNS|LONG||Nbr of Mounting Columns|||FiberISPconnect|||||
229|17|12000|Fiber ISP Connect|Point||fme_feature_type|VW_GC_ISPCONNECT_S_17|Table|GC_ISPCONNECT|TAPER_CODE|TEXT|8|Taper Code|||FiberISPconnect|||||
230|17|12000|Fiber ISP Connect|Point||fme_feature_type|VW_GC_ISPCONNECT_S_17|Table|GC_ISPCONNECT|TERM_NO|TEXT|10|Termination Number|||FiberISPconnect||SERIALNUMBER|||Serial Number
231|17|12000|Fiber ISP Connect|Point||fme_feature_type|VW_GC_ISPCONNECT_S_17|Table|GC_ISPCONNECT|TOTAL_SIZE|LONG||Total Size|||FiberISPconnect||SIZE|||Size
232|17|12000|Fiber ISP Connect|Point||fme_feature_type|VW_GC_ISPCONNECT_S_17|Table|GC_ISPCONNECT|TYPE_OF_CONNECTOR_IN|TEXT|10|Type of IN Connector|||FiberISPconnect|||||
233|17|12000|Fiber ISP Connect|Point||fme_feature_type|VW_GC_ISPCONNECT_S_17|Table|GC_ISPCONNECT|TYPE_OF_CONNECTOR_OUT|TEXT|10|Type of OUT Connector|||FiberISPconnect|||||
234|17|12000|Fiber ISP Connect|Point||fme_feature_type|VW_GC_ISPCONNECT_S_17|Table|GC_ISPCONNECT|USAGE|TEXT|8|Usage|||FiberISPconnect|||||
235|17|12000|Fiber ISP Connect|Point||fme_feature_type|VW_GC_ISPCONNECT_S_17|Point|GC_ISPCONNECT_S|ALIGNMENT|DOUBLE||Alignment|||FiberISPconnect||SYMBOLROTATION|||Symbol Rotation
236|17|12000|Fiber ISP Connect|Point||fme_feature_type|VW_GC_ISPCONNECT_S_17|Point|GC_ISPCONNECT_S|G3E_FID|LONG||GComms Feature ID|||FiberISPconnect||G3E_FID|||G3E_FID
237|17|12000|Fiber ISP Connect|Point||fme_feature_type|VW_GC_ISPCONNECT_S_17|Point|GC_ISPCONNECT_S|G3E_FNO|LONG||G3E_FNO|||FiberISPconnect||G3E_FNO|G3E_FNO||
238|17|12000|Fiber ISP Connect|Point||fme_feature_type|VW_GC_ISPCONNECT_S_17|Point|GC_ISPCONNECT_S|SHAPE|SDO_GEOMETRY||GComms Geometry|||FiberISPconnect||SHAPE|||Shape
239|17|12000|Fiber ISP Connect|Point||fme_feature_type|VW_GC_ISPCONNECT_S_17|Table|GC_NETELEM|FEATURE_STATE|TEXT|10|Feature State|QUERY.FEATURE_STATE->REF_FEATURESTATE|REF_FEATURE_STATE|FiberISPconnect||STATE|||State
240|17|12000|Fiber ISP Connect|Point||fme_feature_type|VW_GC_ISPCONNECT_S_17|Table|GC_NETELEM|JOB_STATE|TEXT|10|Job State|JOB.JOB_STATE->REF_JOB_STATE.JOB_STATE|REF_JOB_STATE|FiberISPconnect||JOBSTATE|||Job State
241|17|12000|Fiber ISP Connect|Point||fme_feature_type|VW_GC_ISPCONNECT_S_17|Table|GC_NETELEM|LOCATION|TEXT|128|Location|||FiberISPconnect||LOCATION|||Location
242|17|12000|Fiber ISP Connect|Point||fme_feature_type|VW_GC_ISPCONNECT_S_17|Table|GC_NETELEM|MIN_MATERIAL|TEXT|80|Primary MIN|||FiberISPconnect||PARTNUMBER|||Part Number
243|17|12000|Fiber ISP Connect|Point||fme_feature_type|VW_GC_ISPCONNECT_S_17|Table|GC_NETELEM|OWNERSHIP|TEXT|30|Ownership|QUERY.OWNERSHIP->REF_OWNERSHIP|REF_OWNERSHIP|FiberISPconnect||OWNER|||Owner
244|17|12000|Fiber ISP Connect|Point||fme_feature_type|VW_GC_ISPCONNECT_S_17|Table|GC_NETELEM|SAPOBJECTKEY|TEXT|50|SAP Object Key|||FiberISPconnect||SAPOBJECTKEY|SAP Object Key||
245|17|12000|Fiber ISP Connect|Point||fme_feature_type|VW_GC_ISPCONNECT_S_17|Table|GC_NETELEM|SWITCH_CENTRE_CLLI|TEXT|25|Exchange Name|||FiberISPconnect||CLLI|||CLLI
246|17|12000|Fiber ISP Connect|Point||fme_feature_type|VW_GC_ISPCONNECT_S_17|Table|GC_NETELEM|YEAR_PLACED|TEXT|4|Year of Placement|||FiberISPconnect||INSTALLATIONDATE|||Installation Date
247|18|12100|Optical Network Unit|Point||fme_feature_type|VW_GC_ONU_S_18|Table|COMPUNIT_N|CU|TEXT|80|CU|||OpticalNetworkUnit||CU|||CU
248|18|12100|Optical Network Unit|Point||fme_feature_type|VW_GC_ONU_S_18|Table|GC_NETELEM|FEATURE_STATE|TEXT|10|Feature State|QUERY.FEATURE_STATE->REF_FEATURESTATE|REF_FEATURE_STATE|OpticalNetworkUnit||STATE|||State
249|18|12100|Optical Network Unit|Point||fme_feature_type|VW_GC_ONU_S_18|Table|GC_NETELEM|JOB_STATE|TEXT|10|Job State|JOB.JOB_STATE->REF_JOB_STATE.JOB_STATE|REF_JOB_STATE|OpticalNetworkUnit||JOBSTATE|||Job State
250|18|12100|Optical Network Unit|Point||fme_feature_type|VW_GC_ONU_S_18|Table|GC_NETELEM|LOCATION|TEXT|128|Location|||OpticalNetworkUnit||LOCATION|||Location
251|18|12100|Optical Network Unit|Point||fme_feature_type|VW_GC_ONU_S_18|Table|GC_NETELEM|MIN_MATERIAL|TEXT|80|Primary MIN|||OpticalNetworkUnit||PARTNUMBER|||Part Number
252|18|12100|Optical Network Unit|Point||fme_feature_type|VW_GC_ONU_S_18|Table|GC_NETELEM|OWNERSHIP|TEXT|30|Ownership|QUERY.OWNERSHIP->REF_OWNERSHIP|REF_OWNERSHIP|OpticalNetworkUnit||OWNER|||Owner
253|18|12100|Optical Network Unit|Point||fme_feature_type|VW_GC_ONU_S_18|Table|GC_NETELEM|SAPOBJECTKEY|TEXT|50|SAP Object Key|||OpticalNetworkUnit||SAPOBJECTKEY|SAP Object Key||
254|18|12100|Optical Network Unit|Point||fme_feature_type|VW_GC_ONU_S_18|Table|GC_NETELEM|SWITCH_CENTRE_CLLI|TEXT|25|Exchange Name|||OpticalNetworkUnit||CLLI|||CLLI
255|18|12100|Optical Network Unit|Point||fme_feature_type|VW_GC_ONU_S_18|Table|GC_NETELEM|YEAR_PLACED|TEXT|4|Year of Placement|||OpticalNetworkUnit||INSTALLATIONDATE|||Installation Date
256|18|12100|Optical Network Unit|Point||fme_feature_type|VW_GC_ONU_S_18|Table|GC_ONU|DESCRIPTION|TEXT|50|Description|ONU.DESCRIPTION->REF_ONU.DESCRIPTION|REF_ONU|OpticalNetworkUnit||DESCRIPTION|||Description
257|18|12100|Optical Network Unit|Point||fme_feature_type|VW_GC_ONU_S_18|Table|GC_ONU|MANUFACTURER|TEXT|50|Manufacturer|ONU.MANUFACTURER->REF_ONU.MANUFACTURER|REF_ONU|OpticalNetworkUnit||MANUFACTURER|||Manufacturer
258|18|12100|Optical Network Unit|Point||fme_feature_type|VW_GC_ONU_S_18|Table|GC_ONU|MODEL|TEXT|50|Model|ONU.MODEL->REF_ONU.MODEL|REF_ONU|OpticalNetworkUnit||MODELNUMBER|||Model Number
259|18|12100|Optical Network Unit|Point||fme_feature_type|VW_GC_ONU_S_18|Point|GC_ONU_S|ALIGNMENT|DOUBLE||Alignment|||OpticalNetworkUnit||SYMBOLROTATION|||Symbol Rotation
260|18|12100|Optical Network Unit|Point||fme_feature_type|VW_GC_ONU_S_18|Point|GC_ONU_S|G3E_FID|LONG||GComms Feature ID|||OpticalNetworkUnit||G3E_FID|||G3E_FID
261|18|12100|Optical Network Unit|Point||fme_feature_type|VW_GC_ONU_S_18|Point|GC_ONU_S|G3E_FNO|LONG||G3E_FNO|||OpticalNetworkUnit||G3E_FNO|G3E_FNO||
262|18|12100|Optical Network Unit|Point||fme_feature_type|VW_GC_ONU_S_18|Point|GC_ONU_S|SHAPE|SDO_GEOMETRY||GComms Geometry|||OpticalNetworkUnit||SHAPE|||Shape
263|19|12200|Fiber Patch Panel|Table||fme_feature_type|VW_GC_FPATCHPANEL_19|Table|GC_FPATCHPANEL|DESCRIPTION|TEXT|50|Description|FPATCHPANEL.DESCRIPTION->REF_FPATCHPANEL.DESCRIPTION|REF_FPATCHPANEL|PatchPanel|||||
264|19|12200|Fiber Patch Panel|Table||fme_feature_type|VW_GC_FPATCHPANEL_19|Table|GC_FPATCHPANEL|G3E_FID|LONG||GComms Feature ID|||PatchPanel|||||
265|19|12200|Fiber Patch Panel|Table||fme_feature_type|VW_GC_FPATCHPANEL_19|Table|GC_FPATCHPANEL|MANUFACTURER|TEXT|50|Manufacturer|FPATCHPANEL.MANUFACTURER->REF_FPATCHPANEL.MANUFACTURER|REF_FPATCHPANEL|PatchPanel|||||
266|19|12200|Fiber Patch Panel|Table||fme_feature_type|VW_GC_FPATCHPANEL_19|Table|GC_FPATCHPANEL|MODEL|TEXT|50|Model|FPATCHPANEL.MODEL->REF_FPATCHPANEL.MODEL|REF_FPATCHPANEL|PatchPanel|||||
267|19|12200|Fiber Patch Panel|Table||fme_feature_type|VW_GC_FPATCHPANEL_19|Table|GC_FPATCHPANEL|POSITION|LONG||Position Nbr|||PatchPanel|||||
268|19|12200|Fiber Patch Panel|Table||fme_feature_type|VW_GC_FPATCHPANEL_19|Table|GC_NETELEM|FEATURE_STATE|TEXT|10|Feature State|QUERY.FEATURE_STATE->REF_FEATURESTATE|REF_FEATURE_STATE|PatchPanel|||||
269|19|12200|Fiber Patch Panel|Table||fme_feature_type|VW_GC_FPATCHPANEL_19|Table|GC_NETELEM|JOB_STATE|TEXT|10|Job State|JOB.JOB_STATE->REF_JOB_STATE.JOB_STATE|REF_JOB_STATE|PatchPanel|||||
270|19|12200|Fiber Patch Panel|Table||fme_feature_type|VW_GC_FPATCHPANEL_19|Table|GC_NETELEM|LOCATION|TEXT|128|Location|||PatchPanel|||||
271|19|12200|Fiber Patch Panel|Table||fme_feature_type|VW_GC_FPATCHPANEL_19|Table|GC_NETELEM|MIN_MATERIAL|TEXT|80|Primary MIN|||PatchPanel|||||
272|19|12200|Fiber Patch Panel|Table||fme_feature_type|VW_GC_FPATCHPANEL_19|Table|GC_NETELEM|OWNERSHIP|TEXT|30|Ownership|QUERY.OWNERSHIP->REF_OWNERSHIP|REF_OWNERSHIP|PatchPanel|||||
273|19|12200|Fiber Patch Panel|Table||fme_feature_type|VW_GC_FPATCHPANEL_19|Table|GC_NETELEM|SWITCH_CENTRE_CLLI|TEXT|25|Exchange Name|||PatchPanel|||||
274|19|12200|Fiber Patch Panel|Table||fme_feature_type|VW_GC_FPATCHPANEL_19|Table|GC_NETELEM|YEAR_PLACED|TEXT|4|Year of Placement|||PatchPanel|||||
275|21|12400|Fiber Interface|Point||fme_feature_type|VW_GC_FITFACE_S_21|Point|COMPUNIT_N|CU|TEXT|80|CU|||FiberDistributionHub||CU|||CU
276|21|12400|Fiber Interface|Point||fme_feature_type|VW_GC_FITFACE_S_21|Point|GC_DETAILIND_S|SHAPE|SDO_GEOMETRY||GComms Geometry|||FiberDistributionHub|||||
277|21|12400|Fiber Interface|Point||fme_feature_type|VW_GC_FITFACE_S_21|Table|GC_FITFACE|DESCRIPTION|TEXT|50|Description|FINTERFACE.DESCRIPTION->REF_FITFACE.DESCRIPTION|REF_FITFACE|FiberDistributionHub||DESCRIPTION|||Description
278|21|12400|Fiber Interface|Point||fme_feature_type|VW_GC_FITFACE_S_21|Table|GC_FITFACE|DSA_DESIGN_TYPE|TEXT|5|DSA Admin. Type|FINTERFACE.DSA_DESIGN_TYPE->REF_DSA.DSA_DESIGN_TYPE|REF_DSA|FiberDistributionHub|||||
279|21|12400|Fiber Interface|Point||fme_feature_type|VW_GC_FITFACE_S_21|Table|GC_FITFACE|DSA_ID|TEXT|15|DSA ID|||FiberDistributionHub|||||
280|21|12400|Fiber Interface|Point||fme_feature_type|VW_GC_FITFACE_S_21|Table|GC_FITFACE|FEATURE_TYPE|TEXT|50|Feature Type|FINTERFACE.FEATURE_TYPE->REF_FITFACE.FEATURE_TYPE|REF_FITFACE|FiberDistributionHub||FDHTYPE|||FDH Type
281|21|12400|Fiber Interface|Point||fme_feature_type|VW_GC_FITFACE_S_21|Table|GC_FITFACE|MANUFACTURER|TEXT|50|Manufacturer|FINTERFACE.MANUFACTURER->REF_FITFACE.MANUFACTURER|REF_FITFACE|FiberDistributionHub||MANUFACTURER|||Manufacturer
282|21|12400|Fiber Interface|Point||fme_feature_type|VW_GC_FITFACE_S_21|Table|GC_FITFACE|MODEL|TEXT|50|Model|FINTERFACE.MODEL->REF_FITFACE.MODEL|REF_FITFACE|FiberDistributionHub||MODELNUMBER|||Model Number
283|21|12400|Fiber Interface|Point||fme_feature_type|VW_GC_FITFACE_S_21|Table|GC_FITFACE|TAPER_CODE|TEXT|8|Taper Code|||FiberDistributionHub|||||
284|21|12400|Fiber Interface|Point||fme_feature_type|VW_GC_FITFACE_S_21|Point|GC_FITFACE_S|ALIGNMENT|DOUBLE||Alignment|||FiberDistributionHub||SYMBOLROTATION|||Symbol Rotation
285|21|12400|Fiber Interface|Point||fme_feature_type|VW_GC_FITFACE_S_21|Point|GC_FITFACE_S|G3E_FID|LONG||GComms Feature ID|||FiberDistributionHub||G3E_FID|||G3E_FID
286|21|12400|Fiber Interface|Point||fme_feature_type|VW_GC_FITFACE_S_21|Point|GC_FITFACE_S|G3E_FNO|LONG||G3E_FNO|||FiberDistributionHub||G3E_FNO|G3E_FNO||
287|21|12400|Fiber Interface|Point||fme_feature_type|VW_GC_FITFACE_S_21|Point|GC_FITFACE_S|SHAPE|SDO_GEOMETRY||GComms Geometry|||FiberDistributionHub||SHAPE|||Shape
288|21|12400|Fiber Interface|Point||fme_feature_type|VW_GC_FITFACE_S_21|Label|GC_FITFACE_T|SHAPE|SDO_GEOMETRY||GComms Geometry|||FiberDistributionHub|||||
289|21|12400|Fiber Interface|Point||fme_feature_type|VW_GC_FITFACE_S_21|Table|GC_NETELEM|FEATURE_STATE|TEXT|10|Feature State|QUERY.FEATURE_STATE->REF_FEATURESTATE|REF_FEATURE_STATE|FiberDistributionHub||STATE|||State
290|21|12400|Fiber Interface|Point||fme_feature_type|VW_GC_FITFACE_S_21|Table|GC_NETELEM|JOB_STATE|TEXT|10|Job State|JOB.JOB_STATE->REF_JOB_STATE.JOB_STATE|REF_JOB_STATE|FiberDistributionHub||JOBSTATE|||Job State
291|21|12400|Fiber Interface|Point||fme_feature_type|VW_GC_FITFACE_S_21|Table|GC_NETELEM|LOCATION|TEXT|128|Location|||FiberDistributionHub||LOCATION|||Location
292|21|12400|Fiber Interface|Point||fme_feature_type|VW_GC_FITFACE_S_21|Table|GC_NETELEM|MIN_MATERIAL|TEXT|80|Primary MIN|||FiberDistributionHub||PARTNUMBER|||Part Number
293|21|12400|Fiber Interface|Point||fme_feature_type|VW_GC_FITFACE_S_21|Table|GC_NETELEM|OWNERSHIP|TEXT|30|Ownership|QUERY.OWNERSHIP->REF_OWNERSHIP|REF_OWNERSHIP|FiberDistributionHub||OWNER|||Owner
294|21|12400|Fiber Interface|Point||fme_feature_type|VW_GC_FITFACE_S_21|Table|GC_NETELEM|SAPOBJECTKEY|TEXT|50|SAP Object Key|||FiberDistributionHub||SAPOBJECTKEY|SAP Object Key||
295|21|12400|Fiber Interface|Point||fme_feature_type|VW_GC_FITFACE_S_21|Table|GC_NETELEM|SWITCH_CENTRE_CLLI|TEXT|25|Exchange Name|||FiberDistributionHub||CLLI|||CLLI
296|21|12400|Fiber Interface|Point||fme_feature_type|VW_GC_FITFACE_S_21|Table|GC_NETELEM|YEAR_PLACED|TEXT|4|Year of Placement|||FiberDistributionHub||INSTALLATIONDATE|||Installation Date
297|23|13100|Fiber BNAP|Point||fme_feature_type|VW_GC_BNAP_S_23|Point|COMPUNIT_N|CU|TEXT|80|CU|||Terminal|2|CU|||CU
298|23|13100|Fiber BNAP|Point||fme_feature_type|VW_GC_BNAP_S_23|Table|GC_BNAP|DESCRIPTION|TEXT|50|Description|BNAP.DESCRIPTION->REF_BNAP.DESCRIPTION|REF_BNAP|Terminal|2|COMMENTS|||Comments
299|23|13100|Fiber BNAP|Point||fme_feature_type|VW_GC_BNAP_S_23|Table|GC_BNAP|FEATURE_TYPE|TEXT|50|Name|BNAP Terminal Type|REF_FTERM_TYPE|Terminal|2|NAME|||Name
300|23|13100|Fiber BNAP|Point||fme_feature_type|VW_GC_BNAP_S_23|Table|GC_BNAP|MANUFACTURER|TEXT|50|Manufacturer|BNAP.MANUFACTURER->REF_BNAP.MANUFACTURER|REF_BNAP|Terminal|2|MANUFACTURER|||Manufacturer
301|23|13100|Fiber BNAP|Point||fme_feature_type|VW_GC_BNAP_S_23|Table|GC_BNAP|MODEL|TEXT|50|Model|BNAP.MODEL->REF_BNAP.MODEL|REF_BNAP|Terminal|2|MODELNUMBER|||Model Number
302|23|13100|Fiber BNAP|Point||fme_feature_type|VW_GC_BNAP_S_23|Point|GC_BNAP_S|ALIGNMENT|DOUBLE||Alignment|||Terminal|2|SYMBOLROTATION|||Symbol Rotation
303|23|13100|Fiber BNAP|Point||fme_feature_type|VW_GC_BNAP_S_23|Point|GC_BNAP_S|G3E_FID|LONG||GComms Feature ID|||Terminal|2|G3E_FID|||G3E_FID
304|23|13100|Fiber BNAP|Point||fme_feature_type|VW_GC_BNAP_S_23|Point|GC_BNAP_S|G3E_FNO|LONG||G3E_FNO|||Terminal|2|G3E_FNO|G3E_FNO||
305|23|13100|Fiber BNAP|Point||fme_feature_type|VW_GC_BNAP_S_23|Point|GC_BNAP_S|SHAPE|SDO_GEOMETRY||GComms Geometry|||Terminal|2|SHAPE|||Shape
306|23|13100|Fiber BNAP|Point||fme_feature_type|VW_GC_BNAP_S_23|Table|GC_NETELEM|FEATURE_STATE|TEXT|10|Feature State|QUERY.FEATURE_STATE->REF_FEATURESTATE|REF_FEATURE_STATE|Terminal|2|STATE|||State
307|23|13100|Fiber BNAP|Point||fme_feature_type|VW_GC_BNAP_S_23|Table|GC_NETELEM|JOB_STATE|TEXT|10|Job State|JOB.JOB_STATE->REF_JOB_STATE.JOB_STATE|REF_JOB_STATE|Terminal|2|JOBSTATE|||Job State
308|23|13100|Fiber BNAP|Point||fme_feature_type|VW_GC_BNAP_S_23|Table|GC_NETELEM|LOCATION|TEXT|128|Location|||Terminal|2|LOCATION|||Location
309|23|13100|Fiber BNAP|Point||fme_feature_type|VW_GC_BNAP_S_23|Table|GC_NETELEM|MIN_MATERIAL|TEXT|80|Primary MIN|||Terminal|2|PARTNUMBER|||Part Number
310|23|13100|Fiber BNAP|Point||fme_feature_type|VW_GC_BNAP_S_23|Table|GC_NETELEM|OWNERSHIP|TEXT|30|Ownership|QUERY.OWNERSHIP->REF_OWNERSHIP|REF_OWNERSHIP|Terminal|2|OWNER|||Owner
311|23|13100|Fiber BNAP|Point||fme_feature_type|VW_GC_BNAP_S_23|Table|GC_NETELEM|SAPOBJECTKEY|TEXT|50|SAP Object Key|||Terminal|2|SAPOBJECTKEY|SAP Object Key||
312|23|13100|Fiber BNAP|Point||fme_feature_type|VW_GC_BNAP_S_23|Table|GC_NETELEM|SWITCH_CENTRE_CLLI|TEXT|25|Exchange Name|||Terminal|2|CLLI|||CLLI
313|23|13100|Fiber BNAP|Point||fme_feature_type|VW_GC_BNAP_S_23|Table|GC_NETELEM|YEAR_PLACED|TEXT|4|Year of Placement|||Terminal|2|INSTALLATIONDATE|||Installation Date
314|24|13200|Fiber SNAP|Point||fme_feature_type|VW_GC_SNAP_S_24|Point|COMPUNIT_N|CU|TEXT|80|CU|||Terminal|3|CU|||CU
315|24|13200|Fiber SNAP|Point||fme_feature_type|VW_GC_SNAP_S_24|Table|GC_NETELEM|FEATURE_STATE|TEXT|10|Feature State|QUERY.FEATURE_STATE->REF_FEATURESTATE|REF_FEATURE_STATE|Terminal|3|STATE|||State
316|24|13200|Fiber SNAP|Point||fme_feature_type|VW_GC_SNAP_S_24|Table|GC_NETELEM|JOB_STATE|TEXT|10|Job State|JOB.JOB_STATE->REF_JOB_STATE.JOB_STATE|REF_JOB_STATE|Terminal|3|JOBSTATE|||Job State
317|24|13200|Fiber SNAP|Point||fme_feature_type|VW_GC_SNAP_S_24|Table|GC_NETELEM|LOCATION|TEXT|128|Location|||Terminal|3|LOCATION|||Location
318|24|13200|Fiber SNAP|Point||fme_feature_type|VW_GC_SNAP_S_24|Table|GC_NETELEM|MIN_MATERIAL|TEXT|80|Primary MIN|||Terminal|3|PARTNUMBER|||Part Number
319|24|13200|Fiber SNAP|Point||fme_feature_type|VW_GC_SNAP_S_24|Table|GC_NETELEM|OWNERSHIP|TEXT|30|Ownership|QUERY.OWNERSHIP->REF_OWNERSHIP|REF_OWNERSHIP|Terminal|3|OWNER|||Owner
320|24|13200|Fiber SNAP|Point||fme_feature_type|VW_GC_SNAP_S_24|Table|GC_NETELEM|SAPOBJECTKEY|TEXT|50|SAP Object Key|||Terminal|3|SAPOBJECTKEY|SAP Object Key||
321|24|13200|Fiber SNAP|Point||fme_feature_type|VW_GC_SNAP_S_24|Table|GC_NETELEM|SWITCH_CENTRE_CLLI|TEXT|25|Exchange Name|||Terminal|3|CLLI|||CLLI
322|24|13200|Fiber SNAP|Point||fme_feature_type|VW_GC_SNAP_S_24|Table|GC_NETELEM|YEAR_PLACED|TEXT|4|Year of Placement|||Terminal|3|INSTALLATIONDATE|||Installation Date
323|24|13200|Fiber SNAP|Point||fme_feature_type|VW_GC_SNAP_S_24|Table|GC_SNAP|DESCRIPTION|TEXT|50|Description|SNAP.DESCRIPTION->REF_SNAP.DESCRIPTION|REF_SNAP|Terminal|3|COMMENTS|||Comments
324|24|13200|Fiber SNAP|Point||fme_feature_type|VW_GC_SNAP_S_24|Table|GC_SNAP|FEATURE_TYPE|TEXT|50|Name|SNAP Type|REF_FTERM_TYPE|Terminal|3|NAME|||Name
325|24|13200|Fiber SNAP|Point||fme_feature_type|VW_GC_SNAP_S_24|Table|GC_SNAP|MANUFACTURER|TEXT|50|Manufacturer|SNAP.MANUFACTURER->REF_SNAP.MANUFACTURER|REF_SNAP|Terminal|3|MANUFACTURER|||Manufacturer
326|24|13200|Fiber SNAP|Point||fme_feature_type|VW_GC_SNAP_S_24|Table|GC_SNAP|MODEL|TEXT|50|Model|SNAP.MODEL->REF_SNAP.MODEL|REF_SNAP|Terminal|3|MODELNUMBER|||Model Number
327|24|13200|Fiber SNAP|Point||fme_feature_type|VW_GC_SNAP_S_24|Point|GC_SNAP_S|ALIGNMENT|DOUBLE||Alignment|||Terminal|3|SYMBOLROTATION|||Symbol Rotation
328|24|13200|Fiber SNAP|Point||fme_feature_type|VW_GC_SNAP_S_24|Point|GC_SNAP_S|G3E_FID|LONG||GComms Feature ID|||Terminal|3|G3E_FID|||G3E_FID
329|24|13200|Fiber SNAP|Point||fme_feature_type|VW_GC_SNAP_S_24|Point|GC_SNAP_S|G3E_FNO|LONG||G3E_FNO|||Terminal|3|G3E_FNO|G3E_FNO||
330|24|13200|Fiber SNAP|Point||fme_feature_type|VW_GC_SNAP_S_24|Point|GC_SNAP_S|SHAPE|SDO_GEOMETRY||GComms Geometry|||Terminal|3|SHAPE|||Shape
331|25|13300|Fiber ZTERM|Point||fme_feature_type|VW_GC_ZTERM_S_25|Point|COMPUNIT_N|CU|TEXT|80|CU|||Terminal|4|CU|||CU
332|25|13300|Fiber ZTERM|Point||fme_feature_type|VW_GC_ZTERM_S_25|Table|GC_NETELEM|FEATURE_STATE|TEXT|10|Feature State|QUERY.FEATURE_STATE->REF_FEATURESTATE|REF_FEATURE_STATE|Terminal|4|STATE|||State
333|25|13300|Fiber ZTERM|Point||fme_feature_type|VW_GC_ZTERM_S_25|Table|GC_NETELEM|JOB_STATE|TEXT|10|Job State|JOB.JOB_STATE->REF_JOB_STATE.JOB_STATE|REF_JOB_STATE|Terminal|4|JOBSTATE|||Job State
334|25|13300|Fiber ZTERM|Point||fme_feature_type|VW_GC_ZTERM_S_25|Table|GC_NETELEM|LOCATION|TEXT|128|Location|||Terminal|4|LOCATION|||Location
335|25|13300|Fiber ZTERM|Point||fme_feature_type|VW_GC_ZTERM_S_25|Table|GC_NETELEM|MIN_MATERIAL|TEXT|80|Primary MIN|||Terminal|4|PARTNUMBER|||Part Number
336|25|13300|Fiber ZTERM|Point||fme_feature_type|VW_GC_ZTERM_S_25|Table|GC_NETELEM|OWNERSHIP|TEXT|30|Ownership|QUERY.OWNERSHIP->REF_OWNERSHIP|REF_OWNERSHIP|Terminal|4|OWNER|||Owner
337|25|13300|Fiber ZTERM|Point||fme_feature_type|VW_GC_ZTERM_S_25|Table|GC_NETELEM|SAPOBJECTKEY|TEXT|50|SAP Object Key|||Terminal|4|SAPOBJECTKEY|SAP Object Key||
338|25|13300|Fiber ZTERM|Point||fme_feature_type|VW_GC_ZTERM_S_25|Table|GC_NETELEM|SWITCH_CENTRE_CLLI|TEXT|25|Exchange Name|||Terminal|4|CLLI|||CLLI
339|25|13300|Fiber ZTERM|Point||fme_feature_type|VW_GC_ZTERM_S_25|Table|GC_NETELEM|YEAR_PLACED|TEXT|4|Year of Placement|||Terminal|4|INSTALLATIONDATE|||Installation Date
340|25|13300|Fiber ZTERM|Point||fme_feature_type|VW_GC_ZTERM_S_25|Table|GC_ZTERM|DESCRIPTION|TEXT|50|Description|ZTERM.DESCRIPTION->REF_ZTERM.DESCRIPTION|REF_ZTERM|Terminal|4|COMMENTS|||Comments
341|25|13300|Fiber ZTERM|Point||fme_feature_type|VW_GC_ZTERM_S_25|Table|GC_ZTERM|FEATURE_TYPE|TEXT|50|Name|ZTERM Type|REF_FTERM_TYPE|Terminal|4|NAME|||Name
342|25|13300|Fiber ZTERM|Point||fme_feature_type|VW_GC_ZTERM_S_25|Table|GC_ZTERM|MANUFACTURER|TEXT|50|Manufacturer|ZTERM.MANUFACTURER->REF_ZTERM.MANUFACTURER|REF_ZTERM|Terminal|4|MANUFACTURER|||Manufacturer
343|25|13300|Fiber ZTERM|Point||fme_feature_type|VW_GC_ZTERM_S_25|Table|GC_ZTERM|MODEL|TEXT|50|Model|ZTERM.MODEL->REF_ZTERM.MODEL|REF_ZTERM|Terminal|4|MODELNUMBER|||Model Number
344|25|13300|Fiber ZTERM|Point||fme_feature_type|VW_GC_ZTERM_S_25|Point|GC_ZTERM_S|ALIGNMENT|DOUBLE||Alignment|||Terminal|4|SYMBOLROTATION|||Symbol Rotation
345|25|13300|Fiber ZTERM|Point||fme_feature_type|VW_GC_ZTERM_S_25|Point|GC_ZTERM_S|G3E_FID|LONG||GComms Feature ID|||Terminal|4|G3E_FID|||G3E_FID
346|25|13300|Fiber ZTERM|Point||fme_feature_type|VW_GC_ZTERM_S_25|Point|GC_ZTERM_S|G3E_FNO|LONG||G3E_FNO|||Terminal|4|G3E_FNO|G3E_FNO||
347|25|13300|Fiber ZTERM|Point||fme_feature_type|VW_GC_ZTERM_S_25|Point|GC_ZTERM_S|SHAPE|SDO_GEOMETRY||GComms Geometry|||Terminal|4|SHAPE|||Shape
348|26|14100|Building|Polygon||fme_feature_type|VW_GC_BLDG_P_26|Table|COMPUNIT_N|CU|TEXT|80|CU|||Building||CU|||CU
349|26|14100|Building|Polygon||fme_feature_type|VW_GC_BLDG_P_26|Table|GC_BLDG|ALIAS|TEXT|50|Alias Name|||Building||ALIASNAME|||Alias Name
350|26|14100|Building|Polygon||fme_feature_type|VW_GC_BLDG_P_26|Table|GC_BLDG|AREA_NPA|TEXT|50|Area NPA|BUILDING.AREA_NPA->REF_EXCH.NPA|REF_EXCH|Building||AREANPA|||Area NPA
351|26|14100|Building|Polygon||fme_feature_type|VW_GC_BLDG_P_26|Table|GC_BLDG|BUILDING_NAME|TEXT|100|Building Name|||Building||BUILDINGNAME|||Building Name
352|26|14100|Building|Polygon||fme_feature_type|VW_GC_BLDG_P_26|Table|GC_BLDG|CLLI_BUILDING|TEXT|20|Building CLLI|||Building||CLLI_BUILDING|||Building CLLI
353|26|14100|Building|Polygon||fme_feature_type|VW_GC_BLDG_P_26|Table|GC_BLDG|CLLI_REMOTE|TEXT|20|Remote CLLI|||Building||CLLIREMOTE|||CLLI Remote
354|26|14100|Building|Polygon||fme_feature_type|VW_GC_BLDG_P_26|Table|GC_BLDG|CUSTOMERS_EXISTING|LONG||Existing Customers|||Building|||||
355|26|14100|Building|Polygon||fme_feature_type|VW_GC_BLDG_P_26|Table|GC_BLDG|CUSTOMERS_POTENTIAL|LONG||Potential Customers|||Building|||||
356|26|14100|Building|Polygon||fme_feature_type|VW_GC_BLDG_P_26|Table|GC_BLDG|ELEVATION|LONG||Elevation|||Building||ELEVATION|||Elevation
357|26|14100|Building|Polygon||fme_feature_type|VW_GC_BLDG_P_26|Table|GC_BLDG|FEATURE_TYPE|TEXT|50|Feature Type|BUILDING.FEATURE_TYPE->REF_BLDG_TYPES.FEATURE_TYPE Queries|REF_BLDG_TYPES|Building||BUILDINGTYPE|||Building Type
358|26|14100|Building|Polygon||fme_feature_type|VW_GC_BLDG_P_26|Table|GC_BLDG|FRMNNX|TEXT|50|FRMNNX|BUILDING.FRMNNX->REF_EXCH.MAIN_FRAME_NNX|REF_EXCH|Building|||||
359|26|14100|Building|Polygon||fme_feature_type|VW_GC_BLDG_P_26|Table|GC_BLDG|HEIGHT|LONG||Height|||Building||HEIGHT|||Height
360|26|14100|Building|Polygon||fme_feature_type|VW_GC_BLDG_P_26|Table|GC_BLDG|LENGTH|LONG||Length|||Building||LENGTH|||Length
361|26|14100|Building|Polygon||fme_feature_type|VW_GC_BLDG_P_26|Table|GC_BLDG|NUM_BASEMENTS|LONG||Nbr of Basements|||Building||BASEMENTS|||Basements
362|26|14100|Building|Polygon||fme_feature_type|VW_GC_BLDG_P_26|Table|GC_BLDG|NUM_FLOORS|LONG||Nbr of Floors|||Building||FLOORS|||Floors
363|26|14100|Building|Polygon||fme_feature_type|VW_GC_BLDG_P_26|Table|GC_BLDG|TAPER_CD|TEXT|50|Taper Code|||Building||TAPERCODE|||Taper Code
364|26|14100|Building|Polygon||fme_feature_type|VW_GC_BLDG_P_26|Table|GC_BLDG|WIDTH|LONG||Width|||Building||WIDTH|||Width
365|26|14100|Building|Polygon||fme_feature_type|VW_GC_BLDG_P_26|Polygon|GC_BLDG_P|G3E_FID|LONG||GComms Feature ID|||Building||G3E_FID|||G3E_FID
366|26|14100|Building|Polygon||fme_feature_type|VW_GC_BLDG_P_26|Polygon|GC_BLDG_P|G3E_FNO|LONG||G3E_FNO|||Building||G3E_FNO|G3E_FNO||
367|26|14100|Building|Polygon||fme_feature_type|VW_GC_BLDG_P_26|Polygon|GC_BLDG_P|SHAPE|SDO_GEOMETRY||GComms Geometry|||Building||SHAPE|||Shape
368|26|14100|Building|Polygon||fme_feature_type|VW_GC_BLDG_P_26|Label|GC_BLDG_T|SHAPE|SDO_GEOMETRY||GComms Geometry|||Building|||||
369|26|14100|Building|Polygon||fme_feature_type|VW_GC_BLDG_P_26|Point|GC_DETAILIND_S|SHAPE|SDO_GEOMETRY||GComms Geometry|||Building|||||
370|26|14100|Building|Polygon||fme_feature_type|VW_GC_BLDG_P_26|Table|GC_ISP_OWNERSHIP|OWNER1_CNO|LONG||1st Parent CNO|||Building|||||
371|26|14100|Building|Polygon||fme_feature_type|VW_GC_BLDG_P_26|Table|GC_ISP_OWNERSHIP|OWNER1_ID|LONG||1st Parent FID|||Building|||||
372|26|14100|Building|Polygon||fme_feature_type|VW_GC_BLDG_P_26|Table|GC_ISP_OWNERSHIP|OWNER2_CNO|LONG||2nd Parent CNO|||Building|||||
373|26|14100|Building|Polygon||fme_feature_type|VW_GC_BLDG_P_26|Table|GC_ISP_OWNERSHIP|OWNER2_ID|LONG||2nd Parent FID|||Building|||||
374|26|14100|Building|Polygon||fme_feature_type|VW_GC_BLDG_P_26|Table|GC_NETELEM|FEATURE_STATE|TEXT|10|Feature State|QUERY.FEATURE_STATE->REF_FEATURESTATE|REF_FEATURE_STATE|Building||STATE|||State
375|26|14100|Building|Polygon||fme_feature_type|VW_GC_BLDG_P_26|Table|GC_NETELEM|JOB_STATE|TEXT|10|Job State|JOB.JOB_STATE->REF_JOB_STATE.JOB_STATE|REF_JOB_STATE|Building||JOBSTATE|||Job State
376|26|14100|Building|Polygon||fme_feature_type|VW_GC_BLDG_P_26|Table|GC_NETELEM|LOCATION|TEXT|128|Location|||Building||LOCATION|||Location
377|26|14100|Building|Polygon||fme_feature_type|VW_GC_BLDG_P_26|Table|GC_NETELEM|MIN_MATERIAL|TEXT|80|Primary MIN|||Building||PARTNUMBER|||Part Number
378|26|14100|Building|Polygon||fme_feature_type|VW_GC_BLDG_P_26|Table|GC_NETELEM|OWNERSHIP|TEXT|30|Ownership|QUERY.OWNERSHIP->REF_OWNERSHIP|REF_OWNERSHIP|Building||OWNER|||Owner
379|26|14100|Building|Polygon||fme_feature_type|VW_GC_BLDG_P_26|Table|GC_NETELEM|SAPOBJECTKEY|TEXT|50|SAP Object Key|||Building||SAPOBJECTKEY|SAP Object Key||
380|26|14100|Building|Polygon||fme_feature_type|VW_GC_BLDG_P_26|Table|GC_NETELEM|SWITCH_CENTRE_CLLI|TEXT|25|Exchange Name|||Building||CLLI|||CLLI
381|26|14100|Building|Polygon||fme_feature_type|VW_GC_BLDG_P_26|Table|GC_NETELEM|YEAR_PLACED|TEXT|4|Year of Placement|||Building||INSTALLATIONDATE|||Installation Date
382|28|7300|Fiber Wire|Polyline||fme_feature_type|VW_GC_FWIR_L_28|Table|COMPUNIT_N|CU|TEXT|80|CU|||FiberCable|5|CU|||CU
383|28|7300|Fiber Wire|Polyline||fme_feature_type|VW_GC_FWIR_L_28|Table|GC_FWIR|ALPHA_CODE|TEXT|20|Alpha Code|WIRE FIBER.ALPHA_CODE->REF_FWIR.ALPHA_CODE|REF_FWIR|FiberCable|5|ALPHACODE|||Alpha Code
384|28|7300|Fiber Wire|Polyline||fme_feature_type|VW_GC_FWIR_L_28|Table|GC_FWIR|ARMOUR|TEXT|20|Armour Type|WIRE FIBER.ARMOUR->REF_FWIR.ARMOUR|REF_FWIR|FiberCable|5||||
385|28|7300|Fiber Wire|Polyline||fme_feature_type|VW_GC_FWIR_L_28|Table|GC_FWIR|DIAMETER|DOUBLE||Cable Diameter|||FiberCable|5|DIAMETER|||Diameter
386|28|7300|Fiber Wire|Polyline||fme_feature_type|VW_GC_FWIR_L_28|Table|GC_FWIR|SHEATH|TEXT|35|Cable Sheath|WIRE FIBER.SHEATH->REF_FWIR.SHEATH|REF_FWIR|FiberCable|5|SHEATHTYPE|||Sheath Type
387|28|7300|Fiber Wire|Polyline||fme_feature_type|VW_GC_FWIR_L_28|Table|GC_FWIR|TOTAL_LENGTH|LONG||Total Length|||FiberCable|5|CALCULATEDLENGTH|||Calculated Length
388|28|7300|Fiber Wire|Polyline||fme_feature_type|VW_GC_FWIR_L_28|Table|GC_FWIR|TOTAL_SIZE|LONG||Total Size|||FiberCable|5|NUMBEROFFIBERS|||Number of Fibers 
389|28|7300|Fiber Wire|Polyline||fme_feature_type|VW_GC_FWIR_L_28|Table|GC_FWIR|USAGE|TEXT|8|Cable Usage|WIRE FIBER.USAGE-->REF_SERVICE_CODE.USAGE_ENG|REF_SERVICE_CODE|FiberCable|5|USAGE|||Usage
390|28|7300|Fiber Wire|Polyline||fme_feature_type|VW_GC_FWIR_L_28|Table|GC_FWIR|WIRE_ID|TEXT|24|Wire ID|||FiberCable|5|REELID|||Reel ID
391|28|7300|Fiber Wire|Polyline||fme_feature_type|VW_GC_FWIR_L_28|Polyline|GC_FWIR_L|G3E_FID|LONG||GComms Feature ID|||FiberCable|5|G3E_FID|||G3E_FID
392|28|7300|Fiber Wire|Polyline||fme_feature_type|VW_GC_FWIR_L_28|Polyline|GC_FWIR_L|G3E_FNO|LONG||G3E_FNO|||FiberCable|5|G3E_FNO|G3E_FNO||
393|28|7300|Fiber Wire|Polyline||fme_feature_type|VW_GC_FWIR_L_28|Polyline|GC_FWIR_L|PLACEMENT|TEXT|12|Cable Placement Type|||FiberCable|5||||
394|28|7300|Fiber Wire|Polyline||fme_feature_type|VW_GC_FWIR_L_28|Polyline|GC_FWIR_L|SECTION_LENGTH|DOUBLE||Section Length|||FiberCable|5|MEASUREDLENGTH|||Measured Length
395|28|7300|Fiber Wire|Polyline||fme_feature_type|VW_GC_FWIR_L_28|Polyline|GC_FWIR_L|SEGMENT_START_LOCATION|DOUBLE||Section Start Meas.|||FiberCable|5||||
396|28|7300|Fiber Wire|Polyline||fme_feature_type|VW_GC_FWIR_L_28|Polyline|GC_FWIR_L|SERVICE_CODE|TEXT|10|Service Code|||FiberCable|5||||
397|28|7300|Fiber Wire|Polyline||fme_feature_type|VW_GC_FWIR_L_28|Polyline|GC_FWIR_L|SHAPE|SDO_GEOMETRY||GComms Geometry|||FiberCable|5|SHAPE|||Shape
398|28|7300|Fiber Wire|Polyline||fme_feature_type|VW_GC_FWIR_L_28|Table|GC_NETELEM|FEATURE_STATE|TEXT|10|Feature State|QUERY.FEATURE_STATE->REF_FEATURESTATE|REF_FEATURE_STATE|FiberCable|5|STATE|||State
399|28|7300|Fiber Wire|Polyline||fme_feature_type|VW_GC_FWIR_L_28|Table|GC_NETELEM|JOB_STATE|TEXT|10|Job State|JOB.JOB_STATE->REF_JOB_STATE.JOB_STATE|REF_JOB_STATE|FiberCable|5|JOBSTATE|||Job State
400|28|7300|Fiber Wire|Polyline||fme_feature_type|VW_GC_FWIR_L_28|Table|GC_NETELEM|LOCATION|TEXT|128|Location|||FiberCable|5|LOCATION|||Location
401|28|7300|Fiber Wire|Polyline||fme_feature_type|VW_GC_FWIR_L_28|Table|GC_NETELEM|MIN_MATERIAL|TEXT|80|Primary MIN|||FiberCable|5|PARTNUMBER|||Part Number
402|28|7300|Fiber Wire|Polyline||fme_feature_type|VW_GC_FWIR_L_28|Table|GC_NETELEM|OWNERSHIP|TEXT|30|Ownership|QUERY.OWNERSHIP->REF_OWNERSHIP|REF_OWNERSHIP|FiberCable|5|OWNER|||Owner
403|28|7300|Fiber Wire|Polyline||fme_feature_type|VW_GC_FWIR_L_28|Table|GC_NETELEM|SAPOBJECTKEY|TEXT|50|SAP Object Key|||FiberCable|5|SAPOBJECTKEY|SAP Object Key||
404|28|7300|Fiber Wire|Polyline||fme_feature_type|VW_GC_FWIR_L_28|Table|GC_NETELEM|SWITCH_CENTRE_CLLI|TEXT|25|Exchange Name|||FiberCable|5|CLLI|||CLLI
405|28|7300|Fiber Wire|Polyline||fme_feature_type|VW_GC_FWIR_L_28|Table|GC_NETELEM|YEAR_PLACED|TEXT|4|Year of Placement|||FiberCable|5|INSTALLATIONDATE|||Installation Date
406|30|11800|Fiber Splice Enclosure|Point||fme_feature_type|VW_GC_FSPLICE_S_30|Table|COMPUNIT_N|CU|TEXT|80|CU|||SpliceClosure|2|CU|||CU
407|30|11800|Fiber Splice Enclosure|Point||fme_feature_type|VW_GC_FSPLICE_S_30|Table|GC_FSPLICE|DESCRIPTION|TEXT|50|Description|FSPLICE.DESCRIPTION->REF_FSPLICE.DESCRIPTION|REF_FSPLICE|SpliceClosure|2|NAME|||Name
408|30|11800|Fiber Splice Enclosure|Point||fme_feature_type|VW_GC_FSPLICE_S_30|Table|GC_FSPLICE|ENCLOSURE_NAME|TEXT|40|Splice No|||SpliceClosure|2|SERIALNUMBER|||Serial Number
409|30|11800|Fiber Splice Enclosure|Point||fme_feature_type|VW_GC_FSPLICE_S_30|Table|GC_FSPLICE|FEATURE_TYPE|TEXT|80|NAME|||SpliceClosure|2||||
410|30|11800|Fiber Splice Enclosure|Point||fme_feature_type|VW_GC_FSPLICE_S_30|Table|GC_FSPLICE|MANUFACTURER|TEXT|50|Manufacturer|FSPLICE.MANUFACTURER->REF_FSPLICE.MANUFACTURER|REF_FSPLICE|SpliceClosure|2|MANUFACTURER|||Manufacturer
411|30|11800|Fiber Splice Enclosure|Point||fme_feature_type|VW_GC_FSPLICE_S_30|Table|GC_FSPLICE|MODEL|TEXT|50|Model|FSPLICE.MODEL->REF_FSPLICE.MODEL|REF_FSPLICE|SpliceClosure|2|MODELNUMBER|||Model Number
412|30|11800|Fiber Splice Enclosure|Point||fme_feature_type|VW_GC_FSPLICE_S_30|Table|GC_FSPLICE|PHYSICAL_TYPE|TEXT|50|Physical Type|FSPLICE.PHYSICAL_TYPE->REF_FSPLICE_PHYSICAL_TYPES.PHYSICAL_TYPE|REF_FSPLICE_PHYSICAL_TYPES|SpliceClosure|2|PLACEMENT|||Placement
413|30|11800|Fiber Splice Enclosure|Point||fme_feature_type|VW_GC_FSPLICE_S_30|Point|GC_FSPLICE_S|ALIGNMENT|DOUBLE||Alignment|||SpliceClosure|2|SYMBOLROTATION|||Symbol Rotation
414|30|11800|Fiber Splice Enclosure|Point||fme_feature_type|VW_GC_FSPLICE_S_30|Point|GC_FSPLICE_S|G3E_FID|LONG||GComms Feature ID|||SpliceClosure|2|G3E_FID|||G3E_FID
415|30|11800|Fiber Splice Enclosure|Point||fme_feature_type|VW_GC_FSPLICE_S_30|Point|GC_FSPLICE_S|G3E_FNO|LONG||G3E_FNO|||SpliceClosure|2|G3E_FNO|G3E_FNO||
416|30|11800|Fiber Splice Enclosure|Point||fme_feature_type|VW_GC_FSPLICE_S_30|Point|GC_FSPLICE_S|SHAPE|SDO_GEOMETRY||GComms Geometry|||SpliceClosure|2|SHAPE|||Shape
417|30|11800|Fiber Splice Enclosure|Point||fme_feature_type|VW_GC_FSPLICE_S_30|Table|GC_NETELEM|FEATURE_STATE|TEXT|10|Feature State|QUERY.FEATURE_STATE->REF_FEATURESTATE|REF_FEATURE_STATE|SpliceClosure|2|STATE|||State
418|30|11800|Fiber Splice Enclosure|Point||fme_feature_type|VW_GC_FSPLICE_S_30|Table|GC_NETELEM|JOB_STATE|TEXT|10|Job State|JOB.JOB_STATE->REF_JOB_STATE.JOB_STATE|REF_JOB_STATE|SpliceClosure|2|JOBSTATE|||Job State
419|30|11800|Fiber Splice Enclosure|Point||fme_feature_type|VW_GC_FSPLICE_S_30|Table|GC_NETELEM|LOCATION|TEXT|128|Location|||SpliceClosure|2|LOCATION|||Location
420|30|11800|Fiber Splice Enclosure|Point||fme_feature_type|VW_GC_FSPLICE_S_30|Table|GC_NETELEM|MIN_MATERIAL|TEXT|80|Primary MIN|||SpliceClosure|2|PARTNUMBER|||Part Number
421|30|11800|Fiber Splice Enclosure|Point||fme_feature_type|VW_GC_FSPLICE_S_30|Table|GC_NETELEM|OWNERSHIP|TEXT|30|Ownership|QUERY.OWNERSHIP->REF_OWNERSHIP|REF_OWNERSHIP|SpliceClosure|2|OWNER|||Owner
422|30|11800|Fiber Splice Enclosure|Point||fme_feature_type|VW_GC_FSPLICE_S_30|Table|GC_NETELEM|SAPOBJECTKEY|TEXT|50|SAP Object Key|||SpliceClosure|2|SAPOBJECTKEY|SAP Object Key||
423|30|11800|Fiber Splice Enclosure|Point||fme_feature_type|VW_GC_FSPLICE_S_30|Table|GC_NETELEM|SWITCH_CENTRE_CLLI|TEXT|25|Exchange Name|||SpliceClosure|2|CLLI|||CLLI
424|30|11800|Fiber Splice Enclosure|Point||fme_feature_type|VW_GC_FSPLICE_S_30|Table|GC_NETELEM|YEAR_PLACED|TEXT|4|Year of Placement|||SpliceClosure|2|INSTALLATIONDATE|||Installation Date
425|31|11800|Fiber Splice Enclosure|Point||fme_feature_type|VW_GC_FSPLICE_S_31|Table|COMPUNIT_N|CU|TEXT|80|CU|||SpliceClosure|3|CU|||CU
426|31|11800|Fiber Splice Enclosure|Point||fme_feature_type|VW_GC_FSPLICE_S_31|Table|GC_FSPLICE|DESCRIPTION|TEXT|50|Description|FSPLICE.DESCRIPTION->REF_FSPLICE.DESCRIPTION|REF_FSPLICE|SpliceClosure|3|NAME|||Name
427|31|11800|Fiber Splice Enclosure|Point||fme_feature_type|VW_GC_FSPLICE_S_31|Table|GC_FSPLICE|ENCLOSURE_NAME|TEXT|40|Splice No|||SpliceClosure|3|SERIALNUMBER|||Serial Number
428|31|11800|Fiber Splice Enclosure|Point||fme_feature_type|VW_GC_FSPLICE_S_31|Table|GC_FSPLICE|FEATURE_TYPE|TEXT|80|NAME|||SpliceClosure|3||||
429|31|11800|Fiber Splice Enclosure|Point||fme_feature_type|VW_GC_FSPLICE_S_31|Table|GC_FSPLICE|MANUFACTURER|TEXT|50|Manufacturer|FSPLICE.MANUFACTURER->REF_FSPLICE.MANUFACTURER|REF_FSPLICE|SpliceClosure|3|MANUFACTURER|||Manufacturer
430|31|11800|Fiber Splice Enclosure|Point||fme_feature_type|VW_GC_FSPLICE_S_31|Table|GC_FSPLICE|MODEL|TEXT|50|Model|FSPLICE.MODEL->REF_FSPLICE.MODEL|REF_FSPLICE|SpliceClosure|3|MODELNUMBER|||Model Number
431|31|11800|Fiber Splice Enclosure|Point||fme_feature_type|VW_GC_FSPLICE_S_31|Table|GC_FSPLICE|PHYSICAL_TYPE|TEXT|50|Physical Type|FSPLICE.PHYSICAL_TYPE->REF_FSPLICE_PHYSICAL_TYPES.PHYSICAL_TYPE|REF_FSPLICE_PHYSICAL_TYPES|SpliceClosure|3|PLACEMENT|||Placement
432|31|11800|Fiber Splice Enclosure|Point||fme_feature_type|VW_GC_FSPLICE_S_31|Point|GC_FSPLICE_S|ALIGNMENT|DOUBLE||Alignment|||SpliceClosure|3|SYMBOLROTATION|||Symbol Rotation
433|31|11800|Fiber Splice Enclosure|Point||fme_feature_type|VW_GC_FSPLICE_S_31|Point|GC_FSPLICE_S|G3E_FID|LONG||GComms Feature ID|||SpliceClosure|3|G3E_FID|||G3E_FID
434|31|11800|Fiber Splice Enclosure|Point||fme_feature_type|VW_GC_FSPLICE_S_31|Point|GC_FSPLICE_S|G3E_FNO|LONG||G3E_FNO|||SpliceClosure|3|G3E_FNO|G3E_FNO||
435|31|11800|Fiber Splice Enclosure|Point||fme_feature_type|VW_GC_FSPLICE_S_31|Point|GC_FSPLICE_S|SHAPE|SDO_GEOMETRY||GComms Geometry|||SpliceClosure|3|SHAPE|||Shape
436|31|11800|Fiber Splice Enclosure|Point||fme_feature_type|VW_GC_FSPLICE_S_31|Table|GC_NETELEM|FEATURE_STATE|TEXT|10|Feature State|QUERY.FEATURE_STATE->REF_FEATURESTATE|REF_FEATURE_STATE|SpliceClosure|3|STATE|||State
437|31|11800|Fiber Splice Enclosure|Point||fme_feature_type|VW_GC_FSPLICE_S_31|Table|GC_NETELEM|JOB_STATE|TEXT|10|Job State|JOB.JOB_STATE->REF_JOB_STATE.JOB_STATE|REF_JOB_STATE|SpliceClosure|3|JOBSTATE|||Job State
438|31|11800|Fiber Splice Enclosure|Point||fme_feature_type|VW_GC_FSPLICE_S_31|Table|GC_NETELEM|LOCATION|TEXT|128|Location|||SpliceClosure|3|LOCATION|||Location
439|31|11800|Fiber Splice Enclosure|Point||fme_feature_type|VW_GC_FSPLICE_S_31|Table|GC_NETELEM|MIN_MATERIAL|TEXT|80|Primary MIN|||SpliceClosure|3|PARTNUMBER|||Part Number
440|31|11800|Fiber Splice Enclosure|Point||fme_feature_type|VW_GC_FSPLICE_S_31|Table|GC_NETELEM|OWNERSHIP|TEXT|30|Ownership|QUERY.OWNERSHIP->REF_OWNERSHIP|REF_OWNERSHIP|SpliceClosure|3|OWNER|||Owner
441|31|11800|Fiber Splice Enclosure|Point||fme_feature_type|VW_GC_FSPLICE_S_31|Table|GC_NETELEM|SAPOBJECTKEY|TEXT|50|SAP Object Key|||SpliceClosure|3|SAPOBJECTKEY|SAP Object Key||
442|31|11800|Fiber Splice Enclosure|Point||fme_feature_type|VW_GC_FSPLICE_S_31|Table|GC_NETELEM|SWITCH_CENTRE_CLLI|TEXT|25|Exchange Name|||SpliceClosure|3|CLLI|||CLLI
443|31|11800|Fiber Splice Enclosure|Point||fme_feature_type|VW_GC_FSPLICE_S_31|Table|GC_NETELEM|YEAR_PLACED|TEXT|4|Year of Placement|||SpliceClosure|3|INSTALLATIONDATE|||Installation Date
