RECORD_ID|FEATURE_MAP_ID|GEOMEDIA_FEATURE_ID|GEOMEDIA_FEATURE_NAME|GEOMEDIA_FEATURE_TYPE|FME_FEATURE_TYPE|GEOMEDIA_FEATURE_VIEW|COMPONENT_TYPE|COMPONENT_TABLE|FIELD_NAME|FIELD_TYPE|FIELD_LENGTH|FIELD_ALIAS|PICKLIST_NAME|PICKLIST_TABLE|ARCGIS_FEATURE|ARCGIS_SUBTYPE_VALUE|ARCGIS_ATTRIBUTE_NAME|ARCGIS_ATTRIBUTE_ALIAS|NOTES
1|1|0|Circuits|Polyline|fme_feature_type|Circuits|||Geometry|Geometry||Geometry|||T_OverheadTransmissionLine|1|||
2|1|0|Circuits|Polyline|fme_feature_type|Circuits|||ID|LONG||ID|||T_OverheadTransmissionLine|1|LineID|Line ID|Is it a transmission line number?
3|1|0|Circuits|Polyline|fme_feature_type|Circuits|||NAME|TEXT|100|NAME|||T_OverheadTransmissionLine|1|LineSegmentName|Line Segment Name|
5|1|0|Circuits|Polyline|fme_feature_type|Circuits|||TID|LONG||TID|||T_OverheadTransmissionLine|1|TID|TID|What is TID?
6|1|0|Circuits|Polyline|fme_feature_type|Circuits|||VOLTAGE|DOUBLE||VOLTAGE|||T_OverheadTransmissionLine|1|OperatingVoltage|Operating Voltage|
7|1|0|Circuits|Polyline|fme_feature_type|Circuits|||WASP_ID|LONG||WASP_ID|||T_OverheadTransmissionLine|1|WASPAssetID|WASP Asset ID|
8|2|0|Circuits_Dismantled|Polyline|fme_feature_type|Circuits_Dismantled|||Geometry|Geometry||Geometry|||T_OverheadTransmissionLine|4|||
9|2|0|Circuits_Dismantled|Polyline|fme_feature_type|Circuits_Dismantled|||ID|LONG||ID|||T_OverheadTransmissionLine|4|LineID|Line ID|
10|2|0|Circuits_Dismantled|Polyline|fme_feature_type|Circuits_Dismantled|||NAME|TEXT|100|NAME|||T_OverheadTransmissionLine|4|LineSegmentName|Line Segment Name|
12|2|0|Circuits_Dismantled|Polyline|fme_feature_type|Circuits_Dismantled|||TID|LONG||TID|||T_OverheadTransmissionLine|4|TID|TID|
13|2|0|Circuits_Dismantled|Polyline|fme_feature_type|Circuits_Dismantled|||VOLTAGE|DOUBLE||VOLTAGE|||T_OverheadTransmissionLine|4|OperatingVoltage|Operating Voltage|
14|2|0|Circuits_Dismantled|Polyline|fme_feature_type|Circuits_Dismantled|||WASP_ID|LONG||WASP_ID|||T_OverheadTransmissionLine|4|WASPAssetID|WASP Asset ID|
15|3|0|Communication_Sites|Point|fme_feature_type|Communication_Sites|||Address|TEXT|255|Address|||T_Site|2|Address|Address|
16|3|0|Communication_Sites|Point|fme_feature_type|Communication_Sites|||Area|TEXT|255|Area|||T_Site|2|Area|Area|
17|3|0|Communication_Sites|Point|fme_feature_type|Communication_Sites|||Bearer_Network_Drawing|TEXT|50|Bearer_Network_Drawing|||T_Site|2|HasDrawing|Has Drawing|
18|3|0|Communication_Sites|Point|fme_feature_type|Communication_Sites|||Co_Ordinates_Confirmed|TEXT|50|Co_Ordinates_Confirmed|||T_Site|2|||Empty
19|3|0|Communication_Sites|Point|fme_feature_type|Communication_Sites|||Communication_Type|TEXT|50|Communication_Type|||T_Site|2|CommunicationType|Communication Type|
20|3|0|Communication_Sites|Point|fme_feature_type|Communication_Sites|||CoordGeocodePoint|Geometry||CoordGeocodePoint|||T_Site|2|||
21|3|0|Communication_Sites|Point|fme_feature_type|Communication_Sites|||CoordGeocodeStatus|TEXT|250|CoordGeocodeStatus|||T_Site|2|||Empty
22|3|0|Communication_Sites|Point|fme_feature_type|Communication_Sites|||Eastings|DOUBLE||Eastings|||T_Site|2|||
23|3|0|Communication_Sites|Point|fme_feature_type|Communication_Sites|||ID1|LONG||ID1|||T_Site|2|StationID|Station ID|
24|3|0|Communication_Sites|Point|fme_feature_type|Communication_Sites|||Map_Included|TEXT|50|Map_Included|||T_Site|2|MapIncluded|Map Included|
25|3|0|Communication_Sites|Point|fme_feature_type|Communication_Sites|||Site_Name|TEXT|255|Site_Name|||T_Site|2|Name|Name|
26|3|0|Communication_Sites|Point|fme_feature_type|Communication_Sites|||Telephone_No|TEXT|255|Telephone_No|||T_Site|2|TelephoneNumber|Telephone Number|
27|3|0|Communication_Sites|Point|fme_feature_type|Communication_Sites|||TLA|TEXT|255|TLA|||T_Site|2|TLA|TLA|
28|3|0|Communication_Sites|Point|fme_feature_type|Communication_Sites|||Type|TEXT|50|Type|||T_Site|2|EnclosureType|Enclosure Type|
29|4|0|Dismantled_Support_Structures|Point|fme_feature_type|Dismantled_Support_Structures|||BARRIERS|TEXT|18|BARRIERS|||T_TransmissionStructure|10|Barrier|Barrier|
30|4|0|Dismantled_Support_Structures|Point|fme_feature_type|Dismantled_Support_Structures|||DENSITY|TEXT|22|DENSITY|||T_TransmissionStructure|10|Configuration|Configuration|
31|4|0|Dismantled_Support_Structures|Point|fme_feature_type|Dismantled_Support_Structures|||DESIGN|TEXT|12|DESIGN|||T_TransmissionStructure|10|UsageType|Usage Type|
32|4|0|Dismantled_Support_Structures|Point|fme_feature_type|Dismantled_Support_Structures|||EASTING|DOUBLE||EASTING|||T_TransmissionStructure|10|||
33|4|0|Dismantled_Support_Structures|Point|fme_feature_type|Dismantled_Support_Structures|||FITTED|TEXT|7|FITTED|||T_TransmissionStructure|10|||Empty
34|4|0|Dismantled_Support_Structures|Point|fme_feature_type|Dismantled_Support_Structures|||Geometry|Geometry||Geometry|||T_TransmissionStructure|10|||
35|4|0|Dismantled_Support_Structures|Point|fme_feature_type|Dismantled_Support_Structures|||ID_LABEL|TEXT|16|ID_LABEL|||T_TransmissionStructure|10|LabelIndicator|Label Indicator|
36|4|0|Dismantled_Support_Structures|Point|fme_feature_type|Dismantled_Support_Structures|||INSTALLED|TEXT|11|INSTALLED|||T_TransmissionStructure|10|||Empty
37|4|0|Dismantled_Support_Structures|Point|fme_feature_type|Dismantled_Support_Structures|||LINE_NAME|TEXT|30|LINE_NAME|||T_TransmissionStructure|10|LineName|Line Name|
38|4|0|Dismantled_Support_Structures|Point|fme_feature_type|Dismantled_Support_Structures|||LINE_NO|TEXT|9|LINE_NO|||T_TransmissionStructure|10|LineID|Line ID|
39|4|0|Dismantled_Support_Structures|Point|fme_feature_type|Dismantled_Support_Structures|||LINE_TOWER|TEXT|13|LINE_TOWER|||T_TransmissionStructure|10|LocationID|Location ID|
40|4|0|Dismantled_Support_Structures|Point|fme_feature_type|Dismantled_Support_Structures|||NORTHING|DOUBLE||NORTHING|||T_TransmissionStructure|10|||
41|4|0|Dismantled_Support_Structures|Point|fme_feature_type|Dismantled_Support_Structures|||NOTES|TEXT|50|NOTES|||T_TransmissionStructure|10|Comments|Comments|
43|4|0|Dismantled_Support_Structures|Point|fme_feature_type|Dismantled_Support_Structures|||SIGN|TEXT|9|SIGN|||T_TransmissionStructure|10|||
44|4|0|Dismantled_Support_Structures|Point|fme_feature_type|Dismantled_Support_Structures|||TID|LONG||TID|||T_TransmissionStructure|10|TID|TID|
45|4|0|Dismantled_Support_Structures|Point|fme_feature_type|Dismantled_Support_Structures|||TOWER_NO|TEXT|11|TOWER_NO|||T_TransmissionStructure|10|TowerID|Tower ID|
46|4|0|Dismantled_Support_Structures|Point|fme_feature_type|Dismantled_Support_Structures|||TOWER_TYPE|TEXT|14|TOWER_TYPE|||T_TransmissionStructure|10|Material|Material|
47|4|0|Dismantled_Support_Structures|Point|fme_feature_type|Dismantled_Support_Structures|||VERSION|TEXT|13|VERSION|||T_TransmissionStructure|10|||
48|4|0|Dismantled_Support_Structures|Point|fme_feature_type|Dismantled_Support_Structures|||VOLTAGE|LONG||VOLTAGE|||T_TransmissionStructure|10|OperatingVoltage|Operating Voltage|
49|4|0|Dismantled_Support_Structures|Point|fme_feature_type|Dismantled_Support_Structures|||WASP_ID|LONG||WASP_ID|||T_TransmissionStructure|10|WASPAssetID|WASP Asset ID|
50|4|0|Dismantled_Support_Structures|Point|fme_feature_type|Dismantled_Support_Structures|||YEAR|TEXT|6|YEAR|||T_TransmissionStructure|10|InstallationDate|Installation Date|
51|5|0|Dismantled_Towerlines|Polyline|fme_feature_type|Dismantled_Towerlines|||Distances|DOUBLE||Distances|||T_OverheadTransmissionLine|6|MeasuredLength|Measured Length|
52|5|0|Dismantled_Towerlines|Polyline|fme_feature_type|Dismantled_Towerlines|||GavPrimary|LONG||GavPrimary|||T_OverheadTransmissionLine|6|GavPrimary|Gav Primary|
53|5|0|Dismantled_Towerlines|Polyline|fme_feature_type|Dismantled_Towerlines|||Geometry|Geometry||Geometry|||T_OverheadTransmissionLine|6|||
54|5|0|Dismantled_Towerlines|Polyline|fme_feature_type|Dismantled_Towerlines|||Geometry_s|TEXT|15|Geometry_s|||T_OverheadTransmissionLine|6|||
55|5|0|Dismantled_Towerlines|Polyline|fme_feature_type|Dismantled_Towerlines|||ID|DOUBLE||ID|||T_OverheadTransmissionLine|6|LineID|Line ID|
56|5|0|Dismantled_Towerlines|Polyline|fme_feature_type|Dismantled_Towerlines|||NAME|TEXT|35|NAME|||T_OverheadTransmissionLine|6|LineSegmentName|Line Segment Name|
58|5|0|Dismantled_Towerlines|Polyline|fme_feature_type|Dismantled_Towerlines|||TID|LONG||TID|||T_OverheadTransmissionLine|6|TID|TID|
59|5|0|Dismantled_Towerlines|Polyline|fme_feature_type|Dismantled_Towerlines|||VOLTAGE|DOUBLE||VOLTAGE|||T_OverheadTransmissionLine|6|OperatingVoltage|Operating Voltage|
60|5|0|Dismantled_Towerlines|Polyline|fme_feature_type|Dismantled_Towerlines|||WASP_ID|LONG||WASP_ID|||T_OverheadTransmissionLine|6|WASPAssetID|WASP Asset ID|
61|5|0|Dismantled_Towerlines|Polyline|fme_feature_type|Dismantled_Towerlines|||WPD|TEXT|50|WPD|||T_OverheadTransmissionLine|6|WPD|WPD|
62|6|0|Easements|Polygon|fme_feature_type|Easements|||Agreement_image|TEXT|250|Agreement_image|||T_Easement||AgreementImage|Agreement Image|Empty
63|6|0|Easements|Polygon|fme_feature_type|Easements|||Agreement_num|TEXT|15|Agreement_num|||T_Easement||AgreementNumber|Agreement Number|
64|6|0|Easements|Polygon|fme_feature_type|Easements|||Agreement_type|TEXT|20|Agreement_type|||T_Easement||AgreementType|Agreement Type|
65|6|0|Easements|Polygon|fme_feature_type|Easements|||Amended_width|TEXT|20|Amended_width|||T_Easement||||Empty
66|6|0|Easements|Polygon|fme_feature_type|Easements|||Building_restrictions|TEXT|250|Building_restrictions|||T_Easement||BuildingRestrictions|Building Restrictions|
67|6|0|Easements|Polygon|fme_feature_type|Easements|||Comments|TEXT|50|Comments|||T_Easement||Comments|Comments|
68|6|0|Easements|Polygon|fme_feature_type|Easements|||Correspondence_image|TEXT|250|Correspondence_image|||T_Easement||||Empty
69|6|0|Easements|Polygon|fme_feature_type|Easements|||Easement_width|TEXT|20|Easement_width|||T_Easement||EasementWidth|Easement Width|
70|6|0|Easements|Polygon|fme_feature_type|Easements|||File_num|TEXT|50|File_num|||T_Easement||DocumentReference|Document Reference|
71|6|0|Easements|Polygon|fme_feature_type|Easements|||Geometry1|Geometry||Geometry1|||T_Easement||||
72|6|0|Easements|Polygon|fme_feature_type|Easements|||ID|LONG||ID|||T_Easement||||
73|6|0|Easements|Polygon|fme_feature_type|Easements|||TID|LONG||TID|||T_Easement||TID|TID|
74|6|0|Easements|Polygon|fme_feature_type|Easements|||Total_width|TEXT|20|Total_width|||T_Easement||TotalWidth|Total Width|
75|7|0|Fibre|Polyline|fme_feature_type|Fibre|||ASSET_ID|LONG||ASSET_ID|||T_CommunicationCable|2|||Empty
76|7|0|Fibre|Polyline|fme_feature_type|Fibre|||Asset_Label|TEXT|255|Asset_Label|||T_CommunicationCable|2|CircuitName|Circuit Name|
77|7|0|Fibre|Polyline|fme_feature_type|Fibre|||Geometry|Geometry||Geometry|||T_CommunicationCable|2|||
78|7|0|Fibre|Polyline|fme_feature_type|Fibre|||ID1|LONG||ID1|||T_CommunicationCable|2|||
79|7|0|Fibre|Polyline|fme_feature_type|Fibre|||Manufacturer|TEXT|50|Manufacturer|||T_CommunicationCable|2|Manufacturer|Manufacturer|
80|7|0|Fibre|Polyline|fme_feature_type|Fibre|||No_of_Cores|LONG||No_of_Cores|||T_CommunicationCable|2|FiberCount|Fiber Count|
81|7|0|Fibre|Polyline|fme_feature_type|Fibre|||Owner|TEXT|50|Owner|||T_CommunicationCable|2|Owner|Owner|
82|7|0|Fibre|Polyline|fme_feature_type|Fibre|||Service_Status|TEXT|50|Service_Status|||T_CommunicationCable|2|ServiceStatus|Service Status|
83|7|0|Fibre|Polyline|fme_feature_type|Fibre|||Type|TEXT|50|Type|||T_CommunicationCable|2|CableCD|Cable CD|
84|8|0|mobileCulvert|Point|fme_feature_type|mobileCulvert|||Culvert_Type|TEXT|20|Culvert_Type|||T_MobileCulvert||Material|Material|
85|8|0|mobileCulvert|Point|fme_feature_type|mobileCulvert|||Geometry|Geometry||Geometry|||T_MobileCulvert||||
86|8|0|mobileCulvert|Point|fme_feature_type|mobileCulvert|||ID1|LONG||ID1|||T_MobileCulvert||||
87|8|0|mobileCulvert|Point|fme_feature_type|mobileCulvert|||Notes|TEXT|50|Notes|||T_MobileCulvert||Size|Size|
88|9|0|mobileGates|Point|fme_feature_type|mobileGates|||Gate_location|TEXT|10|Gate_location|||T_MobileGate||GateLocation|Gate Location|
89|9|0|mobileGates|Point|fme_feature_type|mobileGates|||Gate_Type|TEXT|20|Gate_Type|||T_MobileGate||GateType|Gate Type|
90|9|0|mobileGates|Point|fme_feature_type|mobileGates|||Geometry|Geometry||Geometry|||T_MobileGate||||
91|9|0|mobileGates|Point|fme_feature_type|mobileGates|||ID1|LONG||ID1|||T_MobileGate||||
92|9|0|mobileGates|Point|fme_feature_type|mobileGates|||Key_Issued|TEXT|10|Key_Issued|||T_MobileGate||KeyIssued|Key Issued|
93|9|0|mobileGates|Point|fme_feature_type|mobileGates|||Lock_Owner|TEXT|10|Lock_Owner|||T_MobileGate||LockOwner|Lock Owner|
94|9|0|mobileGates|Point|fme_feature_type|mobileGates|||Lock_Type|TEXT|10|Lock_Type|||T_MobileGate||LockType|Lock Type|
95|9|0|mobileGates|Point|fme_feature_type|mobileGates|||Notes|TEXT|50|Notes|||T_MobileGate||Comments|Comments|
96|10|0|mobileTracks|Polyline|fme_feature_type|mobileTracks|||Condition|TEXT|20|Condition|||T_MobileTrack||ConditionCode|Condition Code|
97|10|0|mobileTracks|Polyline|fme_feature_type|mobileTracks|||Geometry|Geometry||Geometry|||T_MobileTrack||||
98|10|0|mobileTracks|Polyline|fme_feature_type|mobileTracks|||ID1|LONG||ID1|||T_MobileTrack||||
99|10|0|mobileTracks|Polyline|fme_feature_type|mobileTracks|||Notes|TEXT|50|Notes|||T_MobileTrack||Comments|Comments|
100|10|0|mobileTracks|Polyline|fme_feature_type|mobileTracks|||Towers_Accessed|TEXT|50|Towers_Accessed|||T_MobileTrack||TowersAccessed|Towers Accessed|
101|10|0|mobileTracks|Polyline|fme_feature_type|mobileTracks|||Track_Type|TEXT|10|Track_Type|||T_MobileTrack||TrackType|Track Type|
102|12|0|NOCS_Station|Point|fme_feature_type|NOCS_Station|||Geometry|Geometry||Geometry|||NOCS_Station||||
103|12|0|NOCS_Station|Point|fme_feature_type|NOCS_Station|||ID|LONG||ID|||NOCS_Station||TID|TID|
104|12|0|NOCS_Station|Point|fme_feature_type|NOCS_Station|||NOCS_Sensor_Name|TEXT|50|NOCS_Sensor_Name|||NOCS_Station||||
105|12|0|NOCS_Station|Point|fme_feature_type|NOCS_Station|||NOCS_STN_ID|TEXT|3|NOCS_STN_ID|||NOCS_Station||StationID|Station ID|
107|12|0|NOCS_Station|Point|fme_feature_type|NOCS_Station|||Station_Name|TEXT|50|Station_Name|||NOCS_Station||Name|Name|
108|12|0|NOCS_Station|Point|fme_feature_type|NOCS_Station|||WASP_ID|LONG||WASP_ID|||NOCS_Station||WASPAssetID|WASP Asset ID|
109|13|0|NOCS_Weather_Station|Point|fme_feature_type|NOCS_Weather_Station|||Geometry|Geometry||Geometry|||NOCS_Weather_Station||||
110|14|0|Substations|Point|fme_feature_type|Substations|||Geometry|Geometry||Geometry|||T_Site|1|||
111|14|0|Substations|Point|fme_feature_type|Substations|||ID|LONG||ID|||T_Site|1|StationID|Station ID|
112|14|0|Substations|Point|fme_feature_type|Substations|||LINK|TEXT|150|LINK|||T_Site|1|DocumentReference|Document Reference|
113|14|0|Substations|Point|fme_feature_type|Substations|||NAME|TEXT|30|NAME|||T_Site|1|Name|Name|
114|14|0|Substations|Point|fme_feature_type|Substations|||Old_TruVIews|TEXT|150|Old_TruVIews|||T_Site|1|||
116|14|0|Substations|Point|fme_feature_type|Substations|||TID|LONG||TID|||T_Site|1|TID|TID|
117|14|0|Substations|Point|fme_feature_type|Substations|||TYPE|TEXT|30|TYPE|||T_Site|1|EnclosureType|Enclosure Type|
118|14|0|Substations|Point|fme_feature_type|Substations|||WASP_ID|LONG||WASP_ID|||T_Site|1|WASPAssetID|WASP Asset ID|
119|15|0|Terminals|Point|fme_feature_type|Terminals|||AVINAME|TEXT|7|AVINAME|||T_Terminal|1|AVIName|AVI Name|
120|15|0|Terminals|Point|fme_feature_type|Terminals|||CDNUMBER|LONG||CDNUMBER|||T_Terminal|1|CDNumber|CD Number|
121|15|0|Terminals|Point|fme_feature_type|Terminals|||DATE|TEXT|5|DATE|||T_Terminal|1|||Wrong values
122|15|0|Terminals|Point|fme_feature_type|Terminals|||EASTING_AG|DOUBLE||EASTING_AG|||T_Terminal|1|||
123|15|0|Terminals|Point|fme_feature_type|Terminals|||Geometry|Geometry||Geometry|||T_Terminal|1|||
124|15|0|Terminals|Point|fme_feature_type|Terminals|||ID|LONG||ID|||T_Terminal|1|TerminalID|Terminal ID|
125|15|0|Terminals|Point|fme_feature_type|Terminals|||INSTYPE|TEXT|10|INSTYPE|||T_Terminal|1|InstallType|Install Type|
126|15|0|Terminals|Point|fme_feature_type|Terminals|||LAT_WGS84|DOUBLE||LAT_WGS84|||T_Terminal|1|||
127|15|0|Terminals|Point|fme_feature_type|Terminals|||LINENUM|TEXT|6|LINENUM|||T_Terminal|1|LineID1|Line ID1|
128|15|0|Terminals|Point|fme_feature_type|Terminals|||LINENUM2|TEXT|40|LINENUM2|||T_Terminal|1|LineName|Line Name|
129|15|0|Terminals|Point|fme_feature_type|Terminals|||LINENUM3|TEXT|27|LINENUM3|||T_Terminal|1|SubstationName|Substation Name|
130|15|0|Terminals|Point|fme_feature_type|Terminals|||LNG_WGS84|DOUBLE||LNG_WGS84|||T_Terminal|1|||
131|15|0|Terminals|Point|fme_feature_type|Terminals|||NORTHING_A|DOUBLE||NORTHING_A|||T_Terminal|1|||
132|15|0|Terminals|Point|fme_feature_type|Terminals|||NUMBER2|TEXT|14|NUMBER2|||T_Terminal|1|TerminalType|Terminal Type|
133|15|0|Terminals|Point|fme_feature_type|Terminals|||PICTURE|TEXT|34|PICTURE|||T_Terminal|1|DocumentReference|Document Reference|
135|15|0|Terminals|Point|fme_feature_type|Terminals|||STRUCTC_ID|LONG||STRUCTC_ID|||T_Terminal|1|StructureID|Structure ID|
136|15|0|Terminals|Point|fme_feature_type|Terminals|||TAPENUM|LONG||TAPENUM|||T_Terminal|1|TapeNumber|Tape Number|
137|15|0|Terminals|Point|fme_feature_type|Terminals|||TID|LONG||TID|||T_Terminal|1|TID|TID|
138|15|0|Terminals|Point|fme_feature_type|Terminals|||TIME45|TEXT|8|TIME45|||T_Terminal|1|||?
139|15|0|Terminals|Point|fme_feature_type|Terminals|||WASP_ID|LONG||WASP_ID|||T_Terminal|1|WASPAssetID|WASP Asset ID|
140|15|0|Terminals|Point|fme_feature_type|Terminals|||WASP_NUMBE|LONG||WASP_NUMBE|||T_Terminal|1|WASPNumber|WASP Number|
141|16|0|Towerlines|Polyline|fme_feature_type|Towerlines|||Distances|DOUBLE||Distances|||T_OverheadTransmissionLine|5|MeasuredLength|Measured Length|
142|16|0|Towerlines|Polyline|fme_feature_type|Towerlines|||GavPrimary|LONG||GavPrimary|||T_OverheadTransmissionLine|5|GavPrimary|Gav Primary|
143|16|0|Towerlines|Polyline|fme_feature_type|Towerlines|||Geometry|Geometry||Geometry|||T_OverheadTransmissionLine|5|||
144|16|0|Towerlines|Polyline|fme_feature_type|Towerlines|||Geometry_s|TEXT|15|Geometry_s|||T_OverheadTransmissionLine|5|||
145|16|0|Towerlines|Polyline|fme_feature_type|Towerlines|||ID|DOUBLE||ID|||T_OverheadTransmissionLine|5|LineID|Line ID|
146|16|0|Towerlines|Polyline|fme_feature_type|Towerlines|||NAME|TEXT|35|NAME|||T_OverheadTransmissionLine|5|LineSegmentName|Line Segment Name|
148|16|0|Towerlines|Polyline|fme_feature_type|Towerlines|||TID|LONG||TID|||T_OverheadTransmissionLine|5|TID|TID|
149|16|0|Towerlines|Polyline|fme_feature_type|Towerlines|||VOLTAGE|DOUBLE||VOLTAGE|||T_OverheadTransmissionLine|5|OperatingVoltage|Operating Voltage|
150|16|0|Towerlines|Polyline|fme_feature_type|Towerlines|||WASP_ID|LONG||WASP_ID|||T_OverheadTransmissionLine|5|WASPAssetID|WASP Asset ID|
151|16|0|Towerlines|Polyline|fme_feature_type|Towerlines|||WPD|TEXT|50|WPD|||T_OverheadTransmissionLine|5|WPD|WPD|
152|17|0|Towers|Point|fme_feature_type|Towers|||Geometry|Geometry||Geometry|||T_TransmissionStructure|8|||
153|17|0|Towers|Point|fme_feature_type|Towers|||LINE_NAME|TEXT|30|LINE_NAME|||T_TransmissionStructure|8|LineName|Line Name|
154|17|0|Towers|Point|fme_feature_type|Towers|||LINE_NO|TEXT|9|LINE_NO|||T_TransmissionStructure|8|LineID|Line ID|
155|17|0|Towers|Point|fme_feature_type|Towers|||LINE_TOWER|TEXT|13|LINE_TOWER|||T_TransmissionStructure|8|LocationID|Location ID|
157|17|0|Towers|Point|fme_feature_type|Towers|||SOURCE|TEXT|50|SOURCE|||T_TransmissionStructure|8|||
158|17|0|Towers|Point|fme_feature_type|Towers|||TID|LONG||TID|||T_TransmissionStructure|8|TID|TID|
159|17|0|Towers|Point|fme_feature_type|Towers|||TOWER_NO|TEXT|11|TOWER_NO|||T_TransmissionStructure|8|TowerID|Tower ID|
160|17|0|Towers|Point|fme_feature_type|Towers|||TOWER_TYPE|TEXT|14|TOWER_TYPE|||T_TransmissionStructure|8|Material|Material|
161|17|0|Towers|Point|fme_feature_type|Towers|||VOLTAGE|LONG||VOLTAGE|||T_TransmissionStructure|8|OperatingVoltage|Operating Voltage|
162|17|0|Towers|Point|fme_feature_type|Towers|||WASP_ID|LONG||WASP_ID|||T_TransmissionStructure|8|WASPAssetID|WASP Asset ID|
163|17|0|Towers|Point|fme_feature_type|Towers|||YEAR|TEXT|6|YEAR|||T_TransmissionStructure|8|InstallationDate|Installation Date|
164|18|0|Underclearance_Spans|Polyline|fme_feature_type|Underclearance_Spans|||Description|TEXT|50|Description|||T_Span|2|Comments|Comments|
165|18|0|Underclearance_Spans|Polyline|fme_feature_type|Underclearance_Spans|||Geometry|Geometry||Geometry|||T_Span|2|||
167|18|0|Underclearance_Spans|Polyline|fme_feature_type|Underclearance_Spans|||TID|LONG||TID|||T_Span|2|TID|TID|
168|18|0|Underclearance_Spans|Polyline|fme_feature_type|Underclearance_Spans|||Type|TEXT|50|Type|||T_Span|2|SpanType|Span Type|
169|18|0|Underclearance_Spans|Polyline|fme_feature_type|Underclearance_Spans|||WASP_ID|LONG||WASP_ID|||T_Span|2|WASPAssetID|WASP Asset ID|
170|19|0|Underground_Cables|Polyline|fme_feature_type|Underground_Cables|||IPID|LONG||IPID|||T_BuriedElectricLineSegment|1|TID|TID|
171|19|0|Underground_Cables|Polyline|fme_feature_type|Underground_Cables|||LINE|Geometry||LINE|||T_BuriedElectricLineSegment|1|||
172|19|0|Underground_Cables|Polyline|fme_feature_type|Underground_Cables|||LN_LINE_LENGTH|DOUBLE||LN_LINE_LENGTH|||T_BuriedElectricLineSegment|1|MeasuredLength|Measured Length|
173|19|0|Underground_Cables|Polyline|fme_feature_type|Underground_Cables|||Name|TEXT|50|Name|||T_BuriedElectricLineSegment|1|LineSegmentName|Line Segment Name|
174|19|0|Underground_Cables|Polyline|fme_feature_type|Underground_Cables|||RB_PRMRY|LONG||RB_PRMRY|||T_BuriedElectricLineSegment|1|||
175|19|0|Underground_Cables|Polyline|fme_feature_type|Underground_Cables|||RB_SCNDRY|LONG||RB_SCNDRY|||T_BuriedElectricLineSegment|1|||
177|19|0|Underground_Cables|Polyline|fme_feature_type|Underground_Cables|||SEG_ID|LONG||SEG_ID|||T_BuriedElectricLineSegment|1|SegmentID|Segment ID|
178|19|0|Underground_Cables|Polyline|fme_feature_type|Underground_Cables|||VOLTAGE|TEXT|20|VOLTAGE|||T_BuriedElectricLineSegment|1|OperatingVoltage|Operating Voltage|
179|19|0|Underground_Cables|Polyline|fme_feature_type|Underground_Cables|||WASP_ID|LONG||WASP_ID|||T_BuriedElectricLineSegment|1|WASPAssetID|WASP Asset ID|
180|20|0|NOCS_WeatherStation_AnalogData|Table|fme_feature_type|NOCS_WeatherStation_AnalogData|||Description|TEXT|50|Description|||NOCS_Weather_Data||ParameterName|Parameter Name|
181|20|0|NOCS_WeatherStation_AnalogData|Table|fme_feature_type|NOCS_WeatherStation_AnalogData|||NOCS_Key|TEXT|8|NOCS_Key|||NOCS_Weather_Data||NOCSKey|NOCS Key|
182|20|0|NOCS_WeatherStation_AnalogData|Table|fme_feature_type|NOCS_WeatherStation_AnalogData|||TimeStamp|DATE||TimeStamp|||NOCS_Weather_Data||DateObserved|Date Observed|
183|20|0|NOCS_WeatherStation_AnalogData|Table|fme_feature_type|NOCS_WeatherStation_AnalogData|||Value|DOUBLE||Value|||NOCS_Weather_Data||ParameterValue|Parameter Value|
