RECORD_ID|SOURCE_MODEL|GEOMEDIA_FEATURE_ID|GEOMEDIA_FEATURE_NAME|GEOMEDIA_FEATURE_TYPE|GEOMEDIA_FEATURE_VIEW|GEOMEDIA_DATA_FILTER|ARCGIS_MODEL|ARCGIS_FEATURE|ARCGIS_SUBTYPE_VALUE|ARCGIS_SUBTYPE_TEXT|NOTES|ArcGIS to SAP Load Filter|SAP Object Class|SAP Subclass|SAP_Object_Type|GIS_Business_Object_Type|Voltage_Dependency_SAP|SAP_Notes|GIS_Description
1|Geomedia|0|Circuits|Polyline|Circuits||ArcFM|T_OverheadTransmissionLine|1|AC||SubtypeCD=1|Circuit|Circuit|EQUIP|FLOC|Yes|Is there separate subclass for transmission conductors?|str(!LineSegmentName!) + ' #' + str(!LineID!)
2|Geomedia|0|Circuits_Dismantled|Polyline|Circuits_Dismantled||ArcFM|T_OverheadTransmissionLine|4|Dismantled Circuit||SubtypeCD=4|Circuit|Circuit|EQUIP|FLOC|Yes|SAP Asset State will be DECO? Do we show these on map?|str(!LineSegmentName!) + ' #' + str(!LineID!) + ' (DISMANTLED)'
3|Geomedia|0|Communication_Sites|Point|Communication_Sites||ArcFM|T_Site|2|Communication Site||SubtypeCD=2|Site||FLOC|FLOC|||str(!Name! ) + ' Substation ' + str(!CommunicationType!) + ' Communication Site'
4|Geomedia|0|Dismantled_Support_Structures|Point|Dismantled_Support_Structures||ArcFM|T_TransmissionStructure|10|Dismantled||SubtypeCD=10|Support Structure|Lattice Towers|EQUIP|FLOC||SAP Asset State will be DECO? Do we show these on map?|str(!LocationID! ) + ' (DISMANTLED)'
5|Geomedia|0|Dismantled_Towerlines|Polyline|Dismantled_Towerlines||ArcFM|T_OverheadTransmissionLine|6|Dismantled Towerline||SubtypeCD=6|Line||FLOC|FLOC|Yes|SAP Asset State will be DECO? Do we show these on map?|str(!LineSegmentName!)  + ' (DISMANTLED)'
6|Geomedia|0|Easements|Polygon|Easements||ArcFM|T_Easement||||||||||Not needed |str('Easement - Agreement #') + str(!AgreementNumber!)
7|Geomedia|0|Fibre|Polyline|Fibre||ArcFM|T_CommunicationCable|2|Optical Ground Wire|||Fibre Cable||EQUIP|FLOC|||str('Fiber Cable - ') + str(!Manufacturer!) + ' ' + str(!CableCD!) + ' ' + str(!FiberCount!)
8|Geomedia|0|mobileCulvert|Point|mobileCulvert||ArcFM|T_MobileCulvert||||||||||Not needed |
9|Geomedia|0|mobileGates|Point|mobileGates||ArcFM|T_MobileGate|||||Gates||EQUIP|FLOC|||str(!GateType!) + ' Gate at ' + str(!GateLocation!)
10|Geomedia|0|mobileTracks|Polyline|mobileTracks||ArcFM|T_MobileTrack|||||Track||EQUIP|FLOC|||str(!TrackType!) + ' Track - ' + str(!TowersAccessed!) 
11|Geomedia|0|NOCS_Site_Station|Point|NOCS_Site_Station||ArcFM|NOCS_Site_Station|||||||FLOC|||"DJ, PJ to confirm"|
12|Geomedia|0|NOCS_Station|Point|NOCS_Station||ArcFM|NOCS_Station|||||||FLOC|||"DJ, PJ to confirm"|
13|Geomedia|0|NOCS_Weather_Station|Point|NOCS_Weather_Station||ArcFM|NOCS_Weather_Station||||||||||"DJ, PJ to confirm"|
14|Geomedia|0|Substations|Point|Substations||ArcFM|T_Site|1|Substation Site||SubtypeCD=1|Site||FLOC|FLOC|||str(!Name! ) + ' Substation'
15|Geomedia|0|Terminals|Point|Terminals||ArcFM|T_Terminal|1|Electric Terminal|||Overhead Structure|Lattice Towers|FLOC|FLOC|||str(!SubstationName!) + ' Terminal - ' + str(!InstallType! ) + ' Installation'
16|Geomedia|0|Towerlines|Polyline|Towerlines||ArcFM|T_OverheadTransmissionLine|5|Towerline|This is substation to substation towerline|SubtypeCD=5|Line||FLOC|FLOC|||str(!LineSegmentName!) 
17|Geomedia|0|Towers|Point|Towers||ArcFM|T_TransmissionStructure|8|Tower||SubtypeCD=8|Support Structure|Lattice Towers|EQUIP|FLOC|||str('Support Structure ') + str(!LocationID! )
18|Geomedia|0|Underclearance_Spans|Polyline|Underclearance_Spans||ArcFM|T_Span|2|Underclearance|||Span||FLOC|FLOC|||str(!SpanType!) + ' Underclearance'
19|Geomedia|0|Underground_Cables|Polyline|Underground_Cables||ArcFM|T_BuriedElectricLineSegment|1|AC Underground|||Cable|Cable Section|EQUIP|FLOC|Yes||str(!LineSegmentName!) + ' #' + str(!SegmentID!) + ' (UG)'
20|Geomedia|0|NOCS_WeatherStation_AnalogData|Table|NOCS_WeatherStation_AnalogData||ArcFM|NOCS_Weather_Data||||||||||Not needed |
